<?xml version="1.0" encoding="utf-8"?>
<COLLADA xmlns="http://www.collada.org/2005/11/COLLADASchema" version="1.4.1" xmlns:xsi="http://www.w3.org/2001/XMLSchema-instance">
  <asset>
    <contributor>
      <author>Blender User</author>
      <authoring_tool>Blender 2.82.7 commit date:2020-03-12, commit time:05:06, hash:375c7dc4caf4</authoring_tool>
    </contributor>
    <created>2020-03-24T14:03:41</created>
    <modified>2020-03-24T14:03:41</modified>
    <unit name="meter" meter="1"/>
    <up_axis>Z_UP</up_axis>
  </asset>
  <library_effects/>
  <library_images/>
  <library_geometries>
    <geometry id="Circle_006-mesh" name="Circle.006">
      <mesh>
        <source id="Circle_006-mesh-positions">
          <float_array id="Circle_006-mesh-positions-array" count="885">0.009999752 21.02837 3.0108e-7 0.009999871 18.2111 10.51418 0.009999871 10.51418 18.2111 0.01000136 1.79175e-6 21.02837 0.009999871 -10.51418 18.2111 0.009999871 -18.21109 10.51418 0.009999752 -21.02836 3.47628e-6 0.009999096 -18.2111 -10.51418 0.009998381 -10.51419 -18.21109 0.009998381 -7.06542e-6 -21.02837 0.009998381 10.51417 -18.21111 0.009999096 18.21109 -10.5142 -2.31125 18.2111 10.51418 -2.31125 21.02837 4.50076e-7 -2.31125 10.51418 18.2111 -2.311248 1.79175e-6 21.02837 -2.31125 -10.51418 18.2111 -2.31125 -18.21109 10.51418 -2.31125 -21.02836 3.62527e-6 -2.311251 -18.2111 -10.51418 -2.311252 -10.51419 -18.21109 -2.311252 -7.06542e-6 -21.02837 -2.311252 10.51417 -18.21111 -2.311251 18.21109 -10.5142 1.813766 6.576147 3.79674 1.813766 7.593481 -4.31319e-7 1.813766 3.79674 6.576146 1.813767 0 7.593479 1.813766 -3.796741 6.576146 1.813766 -6.576146 3.796741 1.813766 -7.59348 7.15265e-7 1.813766 -6.576147 -3.79674 1.813766 -3.796742 -6.576146 1.813766 -3.16068e-6 -7.593481 1.813766 3.796737 -6.576151 1.813766 6.576144 -3.796745 -2.869165 29.05286 16.77367 -2.869166 33.54735 1.62317e-6 -2.869165 16.77367 29.05285 -2.869163 3.54729e-6 33.54734 -2.869165 -16.77367 29.05285 -2.869165 -29.05284 16.77368 -2.869166 -33.54734 6.68868e-6 -2.869167 -29.05285 -16.77366 -2.869168 -16.77368 -29.05284 -2.869168 -1.05829e-5 -33.54734 -2.869168 16.77366 -29.05286 -2.869167 29.05284 -16.77369 -4.553243 33.03377 19.07206 -4.553243 38.14411 1.74483e-6 -4.553243 19.07206 33.03376 -4.553241 4.10004e-6 38.14411 -4.553243 -19.07205 33.03376 -4.553243 -33.03376 19.07206 -4.553243 -38.1441 7.50443e-6 -4.553245 -33.03376 -19.07205 -4.553246 -19.07206 -33.03375 -4.553246 -1.19663e-5 -38.14411 -4.553246 19.07204 -33.03377 -4.553245 33.03376 -19.07207 -9.171161 33.58605 19.39091 -9.171161 38.78183 2.13902e-6 -9.171161 19.39091 33.58604 -9.171159 4.18036e-6 38.78182 -9.171161 -19.39091 33.58604 -9.171161 -33.58603 19.39092 -9.171161 -38.78181 7.99491e-6 -9.171163 -33.58604 -19.3909 -9.171163 -19.39092 -33.58603 -9.171163 -1.21546e-5 -38.78182 -9.171163 19.39089 -33.58605 -9.171163 33.58603 -19.39093 -12.09432 42.38261 21.48237 -12.09432 41.64276 1.90735e-6 -8.857563 30.17909 37.20856 -8.857562 4.65172e-6 42.96474 -8.857563 -30.17909 37.20856 -12.09432 -42.38259 21.48238 -12.09432 -41.64274 8.58307e-6 -12.09432 -41.85393 -25.24105 -12.09432 -27.84308 -41.8745 -12.09432 -1.34451e-5 -42.96474 -12.09432 27.84305 -41.87452 -12.09432 41.85393 -25.24108 -50.55558 42.38261 21.48238 -50.55558 41.64276 3.22439e-6 -50.55558 30.17909 37.20856 -50.55558 -30.17909 37.20856 -50.55558 -42.38259 21.48238 -50.55558 -41.64274 9.90011e-6 -50.55558 -41.85393 -25.24104 -47.76687 -27.84308 -41.8745 -47.76687 -1.30723e-5 -42.96474 -50.55558 27.84305 -41.87452 -50.55558 41.85393 -25.24108 -64.05558 42.38261 21.48238 -64.05558 41.64276 3.47117e-6 -64.05558 30.17909 37.20856 -64.05557 5.02447e-6 42.96474 -64.05558 -30.17909 37.20856 -64.05558 -42.38259 21.48238 -64.05558 -41.64274 1.01469e-5 -64.05558 -41.85393 -25.24104 -64.05558 -27.84308 -41.8745 -64.05558 -1.30723e-5 -42.96474 -64.05558 27.84305 -41.87452 -64.05558 41.85393 -25.24108 -8.857562 4.65172e-6 47.89947 -8.857563 30.17909 42.14328 -8.857563 -30.17909 42.14328 -8.821928 4.82623e-6 94.2702 -50.55558 30.17909 42.14328 -50.55558 -30.17909 42.14328 -64.05557 5.02447e-6 47.89947 -64.05558 20.32614 42.14328 -64.05558 -20.32613 42.14328 -50.55558 18.47546 45.02137 -50.55558 -18.47545 45.02137 -64.05558 18.47546 45.02137 -64.05558 -18.47545 45.02137 -8.857562 4.65172e-6 85.04009 -8.857563 30.17909 79.2839 -8.857563 -30.17909 79.2839 -50.55558 18.47546 82.16199 -50.55558 30.17909 79.2839 -50.55558 -18.47545 82.16199 -8.821928 4.82623e-6 100.5539 -50.55558 -30.17909 79.2839 -64.05558 -18.47545 82.16199 -64.05557 5.02447e-6 85.04009 -64.05558 18.47546 82.16199 -8.82193 30.17909 88.51401 -8.82193 -30.17909 88.51401 -50.51995 16.26139 91.3921 -50.51995 30.17909 88.51401 -50.51995 -16.26138 91.3921 -9.169469 0.2099789 199.2374 -50.51995 -30.17909 88.51401 -64.01994 -16.26138 91.3921 -64.01993 5.19898e-6 94.2702 -64.01994 16.26139 91.3921 -8.82193 30.17909 94.79773 -8.82193 -30.17909 94.79773 -50.51995 9.883886 97.67582 -50.51995 30.17909 94.79773 -50.51995 -9.883878 97.67582 -50.51994 5.19898e-6 101.2497 -50.51995 -30.17909 94.79773 -64.01994 -9.883878 97.67582 -64.01993 5.19898e-6 101.2497 -64.01994 9.883886 97.67582 -9.119009 30.17909 192.1136 -9.119009 -30.17909 192.1136 -50.81702 9.883887 194.9916 -50.81702 30.17909 192.1136 -50.81702 -9.883877 194.9916 -50.59808 0.2099823 199.2374 -50.81702 -30.17909 192.1136 -57.33291 21.71 300.1 -57.33291 18.82954 310.85 -57.33291 10.96 318.7196 -57.33291 0.209999 321.6 -57.33291 -10.54 318.7196 -57.33291 -18.40955 310.85 -57.33291 -21.29 300.1 -57.33291 -18.40955 289.35 -57.33291 -10.54001 281.4805 -57.33291 0.20999 278.6 -57.33291 10.95999 281.4805 -57.33291 18.82954 289.35 -68.23924 18.82954 310.85 -68.23924 21.71 300.1 -68.23924 10.96 318.7196 -68.23924 0.2099995 321.6 -68.23924 -10.54 318.7196 -68.23924 -18.40955 310.85 -68.23924 -21.29 300.1 -68.23924 -18.40955 289.35 -68.23924 -10.54001 281.4805 -68.23924 0.2099905 278.6 -68.23924 10.95999 281.4805 -68.23924 18.82954 289.35 -57.33291 33.2195 319.1581 -57.33291 38.32609 300.1 -57.33291 19.26805 333.1095 -57.33291 0.2100012 338.2161 -57.33291 -18.84805 333.1095 -57.33291 -32.7995 319.1581 -57.33291 -37.90609 300.1 -57.33291 -32.79951 281.0419 -57.33291 -18.84806 267.0905 -57.33291 0.2099851 261.9839 -57.33291 19.26803 267.0905 -57.33291 33.21949 281.0419 -52.519 43.46388 321.7025 -52.519 43.4149 300.1 -52.519 28.56898 341.5174 -52.519 0.2100018 343.3049 -52.519 -28.14898 341.5174 -52.519 -43.04387 321.7025 -52.519 -42.9949 300.1 -52.519 -42.6014 278.4975 -50.36475 -30.90541 262.6835 -50.36475 0.2099836 256.8951 -50.36475 31.32538 262.6835 -52.519 43.02138 278.4975 4.475826 43.46387 321.7025 4.475826 43.4149 300.1 4.475826 28.56898 341.5174 4.475826 0.2099974 343.3049 4.475826 -28.14898 341.5174 4.475826 -43.04388 321.7025 4.475826 -42.99491 300.1 4.475826 -42.6014 278.4975 4.475826 -30.90542 262.6835 4.475826 0.2099792 256.8951 4.475826 31.32538 262.6835 4.475826 43.02138 278.4975 -12.37509 0.2099984 343.3049 -12.37509 -28.14898 341.5174 -8.936145 31.32538 262.6835 -8.936145 43.02138 278.4975 -8.936145 43.4149 300.1 -8.936145 43.46387 321.7025 -8.936145 -42.6014 278.4975 -8.936145 -30.90541 262.6835 -8.936145 -43.04388 321.7025 -8.936145 28.56898 341.5174 -50.57681 0.2099825 209.6872 -8.936145 -42.99491 300.1 4.475826 -24.77807 259.7893 4.475826 25.19804 259.7893 -8.936145 25.19804 259.7893 -8.936145 -24.77807 259.7893 -50.42869 0.2099835 250.5075 -50.42869 -30.90541 256.2959 -50.42869 31.32538 256.2959 4.411884 19.17745 253.4017 4.411884 0.2099791 250.5075 -9.000087 -30.90541 256.2959 -9.000087 31.32538 256.2959 -9.000087 19.17745 253.4017 -9.000087 -18.75749 253.4017 4.411884 -18.75749 253.4017 -50.57681 -30.90541 215.4756 -50.57681 31.32538 215.4756 4.263771 19.17745 212.5814 4.263771 0.2099782 209.6872 -9.1482 -30.90541 215.4756 -57.33291 -4.708479 320.2821 -9.1482 31.32538 215.4756 -9.1482 19.17745 212.5814 -9.1482 -18.75749 212.5814 4.263771 -18.75749 212.5814 -50.60013 0.2099823 203.2588 -50.60013 -30.90541 209.0472 -50.60013 31.32538 209.0472 4.240445 15.28861 206.153 4.240445 0.209978 203.2588 -9.171526 -30.90541 209.0472 -9.171526 31.32538 209.0472 -9.171526 15.28861 206.153 -9.171526 -14.86865 206.153 4.240445 -14.86865 206.153 -50.59808 -30.90541 205.0258 -50.59808 31.32538 205.0258 4.242502 10.55317 202.1316 4.242502 0.2099779 199.2374 -9.169469 -30.90541 205.0258 -9.169469 31.32538 205.0258 -9.169469 10.55317 202.1316 -9.169469 -10.13321 202.1316 4.242502 -10.13321 202.1316 -68.23924 -4.708478 320.2821 -57.33291 -8.509681 335.8796 -52.519 -12.76516 342.487 4.475826 -12.76517 342.487 -12.37509 -12.76517 342.487 4.475826 -28.327 344.3417 -12.37509 -28.327 344.3417 -12.37509 -12.94318 345.3114 4.475826 -12.94318 345.3114 0.009998381 -4.81469 -19.73827 -2.311252 -4.81469 -19.73827 1.813766 -1.738617 -7.12762 -2.869168 -7.681055 -31.48921 -4.553246 -8.733538 -35.80396 -9.171163 -8.87955 -36.40255 -12.09432 -12.74999 -42.4655 -47.76687 -12.74999 -42.4655 -64.05558 -12.74999 -42.4655 -47.76687 -12.85937 -45.25889 -47.76687 -27.95246 -44.66789 -64.05558 -12.85937 -45.25889 -64.05558 -27.95246 -44.66789</float_array>
          <technique_common>
            <accessor source="#Circle_006-mesh-positions-array" count="295" stride="3">
              <param name="X" type="float"/>
              <param name="Y" type="float"/>
              <param name="Z" type="float"/>
            </accessor>
          </technique_common>
        </source>
        <source id="Circle_006-mesh-normals">
          <float_array id="Circle_006-mesh-normals-array" count="1533">0.9904779 -0.09734922 0.09734916 0.9989374 -0.01192873 0.04451817 0 -0.707107 0.7071066 0 0.9659258 -0.2588194 0 0.7071067 0.7071068 0 -0.2588198 -0.9659256 0 -0.9659259 0.2588192 0 0.258819 0.9659259 0 0.2588186 -0.9659259 0 -0.965926 -0.2588186 0 -0.2588191 0.9659259 0 0.7071065 -0.7071071 0 0.9659258 0.2588191 0 -0.707107 -0.7071067 1 0 -5.85891e-7 0.9904779 0.1329814 -0.03563231 0.9904779 0.09734916 0.09734916 0.9904778 -0.03563231 -0.1329815 0.9904779 -0.1329815 0.03563225 0.9904779 0.03563237 0.1329814 0.9904779 0.03563213 -0.1329815 0.9904778 -0.1329815 -0.03563231 0.9904779 -0.03563237 0.1329814 0.9904779 0.09734916 -0.09734934 0.9904779 0.1329814 0.03563225 0.9904778 -0.09734922 -0.09734928 0.9350053 -0.3425501 -0.09178596 0.9989374 0.03258961 -0.03258973 0.9989374 0.04451823 0.01192855 0.9989374 -0.03258955 -0.03258967 0.9989374 -0.03258961 0.03258955 0.9989374 0.04451817 -0.01192873 0.9989374 0.03258961 0.03258955 0.9989374 -0.01192867 -0.04451829 0.9989374 -0.04451817 0.01192855 0.9989374 0.01192873 0.04451817 0.9989374 0.01192861 -0.04451829 0.9989374 -0.04451823 -0.01192861 0.1322188 -0.9574456 -0.2565467 0.9350054 -0.09178608 0.3425499 0.9350053 0.2507639 -0.2507644 0.9350054 0.3425498 0.09178596 0.9350051 -0.2507643 -0.2507642 0.9350053 -0.2507638 0.250764 0.9350053 0.34255 -0.09178626 0.9350053 0.250764 0.2507641 0.9350052 -0.09178626 -0.3425502 0.9350053 -0.34255 0.09178602 0.9350053 0.09178614 0.3425501 0.9350053 0.09178584 -0.3425502 0.9984244 0.01051354 -0.05512207 0.1322197 -0.2565469 0.9574455 0.1322195 0.7008983 -0.7008991 0.1322189 0.9574455 0.2565469 0.1322194 -0.7008988 -0.7008986 0.1322197 -0.7008987 0.7008987 0.132219 0.9574453 -0.2565479 0.1322194 0.7008987 0.7008988 0.1322203 -0.2565475 -0.9574452 0.1322183 -0.9574456 0.2565469 0.1322186 0.2565469 0.9574455 0.1322197 0.2565464 -0.9574455 0 -0.7648265 -0.6442363 0.9605217 0.2127783 -0.1792302 0.9481371 0.3176735 -0.01094067 0.970837 -0.1695222 -0.1695221 0.9510776 -0.3061127 0.04179298 0.6869766 0.7019185 -0.188079 0.9995268 -0.02175104 -0.0217511 0.9199219 -0.1014836 -0.378741 0.6869772 -0.701918 0.1880784 0.9970015 -0.02002817 -0.07474607 0.946947 0.01257467 -0.3211439 0.9421799 -0.3350961 0.002803742 0 0.9994075 -0.03441923 0 -0.7900326 0.613065 0 0.999965 0.00836575 0 0.7900323 0.6130654 0 -0.03912693 -0.9992343 0 -0.9994075 -0.03441941 1 0 0 0 0.03912591 -0.9992343 0 -0.9999651 0.008366763 0 -1 0 0 0.7648259 -0.6442372 0 0.9994075 -0.03441941 0 -0.7648265 -0.6442363 0 -0.7900325 0.6130652 0 0.9999651 0.008365929 0 0.7900323 0.6130653 -1 0 0 0 -0.9994075 -0.03441965 -1 0 -2.47798e-7 0 0.03912591 -0.9992344 0 -0.999965 0.008367002 0 0.447812 0.8941277 0 0.7648259 -0.6442372 0 1 0 -0.1716997 0.2352537 0.9566478 -1 -1.40414e-7 0 -0.5895318 0.8077453 0 -1 0 -2.47798e-7 1 0 0 0 0.8411149 0.5408566 1 0 0 -0.5895318 -0.8077453 0 0 -0.447812 0.8941277 0 -0.8411152 0.5408561 0.9999923 -7.36266e-4 -0.003860473 -0.9999914 -8.4011e-4 0.004061937 0 0.9724149 0.2332582 -0.9999921 9.49202e-4 0.003860473 1 0 0 -1 8.00531e-7 0 -1 -4.42382e-7 0 1 0 0 0 0.7018505 0.7123243 -0.9999924 -6.83769e-4 0.00386089 0 -1 3.39468e-7 -0.9999918 6.24631e-4 0.004010677 0.9999923 7.36266e-4 -0.003860473 0 1 -6.34334e-7 0 -0.9724149 0.2332583 -0.9999948 -0.001104593 -0.003052651 0.9999935 -8.46157e-4 0.003523528 0 -0.3400401 0.940411 0 0.3400405 0.9404108 -1 -7.28108e-7 -5.80439e-7 1 0 0 0 -0.7018501 0.7123247 0 1 0 -0.9997568 0.0220403 -8.44448e-4 0.9999952 -5.82271e-4 0.003052711 -0.9999953 4.32843e-4 -0.003052651 0 -1 0 -0.9999953 -4.33137e-4 -0.003052651 -1 3.41699e-7 0 2.52681e-6 0.2588199 0.9659257 0 0.2588199 -0.9659257 0 -0.9659259 -0.2588189 1.81684e-6 -0.2588206 0.9659255 0 0.7071063 -0.7071073 0 0.9659258 0.2588194 0 -0.7071065 -0.7071071 0 -0.7071065 0.7071071 0 0.9659257 -0.2588196 -3.03721e-6 0.7071065 0.7071071 0 -0.25882 -0.9659256 0 -0.9659259 0.2588192 -0.8580487 0.3631471 -0.3631486 -1 3.417e-7 0 -1 -2.27945e-7 0 -1 1.86708e-7 0 -1 -6.83398e-7 0 -1 6.83395e-7 0 -1 6.83398e-7 0 -1 -6.834e-7 0 -1 6.834e-7 0 -1 -6.83396e-7 0 1.2352e-6 -0.06290638 0.9980195 -0.7144448 0.6758505 0.1810931 -0.8580482 -0.3631478 -0.3631488 -0.9334019 -0.2537328 0.2537334 -0.7144448 0.6758504 -0.181094 -0.9334019 0.2537328 0.2537334 -0.5764245 -0.2114961 -0.7893062 -0.7144448 -0.6758505 0.1810936 -0.71444 0.1810951 0.6758551 -0.5764238 0.2114962 -0.7893067 -0.7144448 -0.6758504 -0.1810938 -0.7144476 -0.1810928 0.6758477 1 0 0 0 0.8039973 -0.5946329 0 0.9999975 -0.002266705 -1.85093e-6 -0.8039977 -0.5946323 0 -0.7993472 0.6008694 0 0.9998342 -0.01821368 0 0.7993471 0.6008697 0 -0.4270941 -0.9042072 0 -0.9999975 -0.002266705 0 0.06290549 0.9980196 0 0.7277041 -0.6858913 0 -0.9998342 -0.01821285 0 -0.9998342 -0.01821255 -0.9999482 0.001862049 0.0100097 0 0.06290549 0.9980195 0 -0.9999975 -0.002266585 0.9999361 -0.001301407 -0.01123636 0 0.799347 0.6008698 0 0.9998342 -0.01821333 3.25705e-7 -0.7993475 0.6008692 -2.00226e-7 -0.8039976 -0.5946326 1.7625e-7 0.9999975 -0.002267122 0 0.8039974 -0.5946329 1.24181e-6 -0.06290638 0.9980195 0 0.4270941 -0.9042072 0.9999387 -0.004728019 -0.01000964 0.9999931 8.64414e-4 -0.003628373 -0.9999932 6.75057e-4 0.003628373 -1.38118e-7 -1 0 -1.42212e-7 -1 0 0 -0.7277041 -0.6858913 -1.38118e-7 -1 -3.30649e-7 -0.9999482 -0.001862049 0.0100097 0.9999361 0.001301407 -0.01123636 0 1 9.22575e-7 0.9999388 0.004728078 -0.01000958 -0.9999933 -6.74975e-4 0.003628671 0.9999931 -8.64429e-4 -0.003628551 0.9999931 8.64435e-4 -0.003628551 -0.9999933 6.74975e-4 0.003628671 0.9999931 -8.64383e-4 -0.003628373 -0.9999932 -6.74865e-4 0.003628373 0 1 0 0.9999933 5.53663e-4 -0.003628373 0 0.6473056 -0.7622308 0 1 -5.32085e-7 -1 9.5116e-5 -5.11285e-4 0.9999999 9.2275e-5 5.11524e-4 0 1 0 0 0.855618 -0.5176079 0.9999919 6.09971e-4 -0.003997504 0.9999919 -6.09986e-4 -0.003997445 0 -0.855618 -0.5176078 -1.38118e-7 -1 -3.76002e-7 0 0.2694659 -0.96301 0 -0.2694661 -0.9630099 0.9999998 -1.26879e-4 6.60904e-4 0.9999999 1.26838e-4 6.60902e-4 8.17067e-7 -0.6473057 -0.7622305 -1.38118e-7 -1 -1.4654e-6 -1 -9.51167e-5 -5.11289e-4 0.9999999 -9.2275e-5 5.11525e-4 -0.9993222 -0.006732821 0.03619223 -0.9998571 0.002374291 0.01674312 0 0.9960827 -0.08842694 -0.9993394 0.00664699 0.03573095 -0.9998558 -0.002385139 0.01681971 0 -0.9984217 -0.05616199 0.9999922 5.48791e-4 0.003938734 0.9999944 9.0359e-4 0.003228902 0.9999943 -9.10441e-4 0.0032534 0.9999933 -5.53653e-4 -0.003628373 -1.06634e-6 -0.06290471 0.9980195 -0.8410252 -0.1400211 0.5225619 0 -0.9980196 -0.06290489 -3.29228e-6 -0.2588188 0.9659259 0 -0.06290471 0.9980196 1 0 0 0 0.9980196 0.06290423 0 -0.03912651 -0.9992343 0 -0.03912651 -0.9992343 0.8101942 -0.1517101 -0.5661885 0.1322188 -0.2565475 -0.9574453 0.9350053 -0.09178626 -0.34255 0.9989374 -0.01192867 -0.04451829 0.9904778 -0.03563237 -0.1329815 0 -0.2588194 -0.9659258 0 -0.03912699 -0.9992343 1 -7.22727e-7 0 0 -0.9992342 0.03912848 0 0.9992343 -0.03912711 -1 0 1.32542e-6 -1 0 0 -1 0 0 1 0 0 1 0 0 1 0 0 0.9904779 -0.09734916 0.0973491 0.9989374 -0.01192873 0.04451817 0 -0.7071068 0.7071068 0 0.9659256 -0.2588198 0 0.7071068 0.7071068 0 -0.2588198 -0.9659257 0 -0.9659259 0.2588193 0 0.2588191 0.9659259 0 0.2588185 -0.965926 0 -0.9659259 -0.2588191 0 -0.258819 0.9659259 0 0.7071062 -0.7071074 0 0.9659258 0.2588192 0.9904779 0.1329814 -0.03563237 0.9904779 0.0973491 0.09734916 0.9904778 -0.03563237 -0.1329815 0.9904779 -0.1329814 0.03563231 0.9904779 0.03563243 0.1329814 0.9904779 0.03563219 -0.1329815 0.9904779 -0.1329815 -0.03563225 0.9904779 -0.03563237 0.1329814 0.9904779 0.0973491 -0.09734928 0.9904779 0.1329814 0.03563225 0.9904779 -0.09734922 -0.09734922 0.9350054 -0.3425499 -0.09178602 0.9989374 0.03258955 -0.03258973 0.9989374 0.04451811 0.01192861 0.9989374 -0.03258967 -0.03258973 0.9989374 -0.03258961 0.03258961 0.9989374 0.04451823 -0.01192867 0.9989374 0.03258961 0.03258955 0.9989374 -0.01192861 -0.04451829 0.9989374 -0.04451823 0.01192855 0.9989374 0.01192867 0.04451817 0.9989374 0.01192861 -0.04451829 0.9989374 -0.04451823 -0.01192867 0.1322183 -0.9574456 -0.256547 0.9350053 -0.09178614 0.3425502 0.9350054 0.2507637 -0.2507641 0.9350053 0.34255 0.09178596 0.9350054 -0.250764 -0.2507641 0.9350053 -0.2507642 0.2507641 0.9350054 0.3425499 -0.0917862 0.9350054 0.2507638 0.250764 0.9350054 -0.0917862 -0.3425499 0.9350054 -0.34255 0.09178596 0.9350054 0.09178608 0.3425499 0.9350053 0.09178584 -0.34255 0.9970015 0.02002817 -0.07474613 0.1322175 -0.256547 0.9574458 0.1322183 0.7008985 -0.7008993 0.1322191 0.9574455 0.2565471 0.1322189 -0.700899 -0.7008985 0.1322183 -0.7008988 0.7008988 0.1322191 0.9574454 -0.2565473 0.1322188 0.7008985 0.7008991 0.132219 -0.2565475 -0.9574454 0.132219 -0.9574456 0.2565468 0.1322188 0.256547 0.9574456 0.1322177 0.2565465 -0.9574458 -1.45938e-7 -0.7648265 -0.6442363 0.9708371 0.1695221 -0.1695223 0.6869769 0.7019183 0.1880787 0.9605217 -0.2127788 -0.1792299 0.9995269 0.02175104 -0.0217511 0.9421799 0.3350957 0.002803504 0.9510775 0.3061125 0.0417931 0.9469471 -0.01257503 -0.3211436 0.9481371 -0.3176736 -0.01094067 0.9984243 -0.01051354 -0.05512213 0.8101944 0.1517094 -0.5661883 0.6869767 -0.7019186 -0.1880784 0 0.9994075 -0.03441965 0 -0.7900326 0.6130649 0 0.9999651 0.008365988 0 0.7900325 0.613065 0 -0.03912699 -0.9992343 0 -0.9994075 -0.03441971 0 0.03912591 -0.9992343 0 -0.9999651 0.008366525 0 0.7648257 -0.6442373 0 0.9994075 -0.03441941 0 -0.7648261 -0.6442368 0 -0.7900328 0.6130647 0 0.999965 0.008366286 0 0.7900325 0.6130651 -1 -3.61366e-7 0 0 -0.9994075 -0.03441965 -1 6.69456e-7 0 -1 0 -8.15226e-7 0 0.03912591 -0.9992344 0 -0.999965 0.008366644 0 0.7648255 -0.6442375 -1 0 -8.15227e-7 -1 -6.69456e-7 0 1 0 0 1 0 0 -0.1716998 -0.2352535 0.9566479 0.9999923 -7.36267e-4 -0.003860473 -0.9999921 -9.49202e-4 0.003860473 0 0.9724149 0.2332583 -0.9999914 8.4011e-4 0.004061937 1 0 0 -1 -8.00531e-7 0 -1 1.40414e-7 0 -1 7.28111e-7 -5.80441e-7 1 0 0 0 0.70185 0.7123248 -0.9999918 -6.2463e-4 0.004010617 0 -1 -6.34334e-7 -0.9999924 6.83769e-4 0.00386089 0.9999923 7.36266e-4 -0.003860473 0 1 3.38848e-7 0 -0.972415 0.233258 -0.9997363 -0.02295428 -7.48011e-4 0.9999952 5.82271e-4 0.003052711 0 -0.3400404 0.9404109 0 0.3400401 0.9404109 -1 4.42382e-7 0 0 -0.7018502 0.7123246 0 1 0 -0.9999948 0.001104593 -0.003052651 0.9999935 8.35302e-4 0.003519952 -0.9999953 4.33137e-4 -0.003052651 -0.9999953 -4.32843e-4 -0.003052651 -1 -3.85481e-7 0 0 0.2588197 0.9659257 4.004e-7 0.2588197 -0.9659257 0 -0.9659259 -0.2588187 0 -0.2588204 0.9659255 0 0.7071064 -0.7071072 4.00401e-7 -0.7071066 -0.707107 0 -0.7071065 0.7071071 0 0.9659257 -0.2588199 0 0.7071065 0.7071071 -1.83382e-6 -0.2588198 -0.9659257 0 -0.9659258 0.2588191 -0.8698067 0.3325749 -0.3644592 -1 -3.85478e-7 0 -1 3.85481e-7 0 -1 -5.14055e-7 0 -1 -3.85481e-7 0 -1 3.85481e-7 0 -1 1.9274e-7 0 -1 7.70958e-7 0 0 -0.06290638 0.9980195 -0.9049628 0.4254895 -9.64574e-4 -0.8698066 -0.332575 -0.3644591 -0.8960784 -0.3548266 0.2667237 -0.8983844 0.4391372 -0.007999658 -0.8960788 0.3548262 0.2667235 -0.6842339 -0.1333763 -0.7169623 -0.9049628 -0.4254896 -9.6445e-4 -0.8812702 0.02973008 0.4716768 -0.6842329 0.1333763 -0.7169632 -0.8983844 -0.4391372 -0.007999122 -0.8186413 -0.03612762 0.5731678 0 0.8039975 -0.5946326 0 0.9999975 -0.002267122 0 -0.8039978 -0.5946322 0 -0.7993473 0.6008695 0 0.9998342 -0.01821327 0 0.7993473 0.6008695 -2.80521e-7 -0.4270941 -0.9042072 0 0.06290549 0.9980196 0 0.7277039 -0.6858915 0 -0.9998342 -0.01821255 -0.9999483 0.001862108 0.01000982 -5.26838e-7 0.06290549 0.9980195 -1.73454e-7 -0.9999974 -0.002267122 0.9999487 -0.001527309 -0.01000982 9.03914e-7 0.7993473 0.6008693 0 0.9998342 -0.01821333 -9.03914e-7 -0.7993471 0.6008695 0 -0.803998 -0.5946322 0 0.9999974 -0.002267122 0 0.8039974 -0.5946329 0 -0.06290638 0.9980195 0.999912 -0.003075242 -0.01290804 0.9999931 8.64521e-4 -0.003628373 -0.9999933 6.75153e-4 0.003628373 -1.38118e-7 -1 0 -1.42212e-7 -1 0 0 -0.7277038 -0.6858915 -1.38119e-7 -1 0 -0.9999482 -0.001862108 0.01000982 0.9999487 0.001527309 -0.01000982 0 1 -5.78411e-7 0.999912 0.003075242 -0.01290798 -0.9999932 -6.74975e-4 0.003628671 0.9999915 -7.35148e-4 -0.004073262 0.9999915 7.35144e-4 -0.004073262 -0.9999933 6.74975e-4 0.003628671 0.999993 -8.64537e-4 -0.003628373 -0.9999932 -6.75057e-4 0.003628373 0 1 0 0 1 0 0.9999933 5.53646e-4 -0.003628373 0 0.6473057 -0.7622305 -1 9.51167e-5 -5.11289e-4 0.9999999 8.53309e-5 6.11924e-4 0 1 8.38842e-7 0 0.855618 -0.5176079 0.9999932 6.96439e-4 -0.003628492 0.9999933 -6.96463e-4 -0.003628492 -6.75635e-7 -0.8556181 -0.5176076 -1.38118e-7 -1 9.16728e-7 5.45483e-7 0.2694659 -0.96301 1.42652e-6 -0.269466 -0.96301 1 -1.43161e-4 5.11525e-4 0.9999999 1.43161e-4 5.11525e-4 -1.46502e-6 -0.6473058 -0.7622304 -1.38118e-7 -1 1.75188e-6 -1 -9.51167e-5 -5.11289e-4 0.9999999 -8.52759e-5 6.11922e-4 0 0.9960826 -0.08842831 0 -0.9984217 -0.05616199 0.9999921 -5.51296e-4 0.003956794 0.9999933 -5.53663e-4 -0.003628373 1.57818e-6 -0.06290471 0.9980196 -0.8812689 -0.02972954 0.4716792 4.39617e-6 -0.2588188 0.9659259 0 -0.06290471 0.9980196 1 0 0 0 0.9980196 0.06290489 0 -0.03912651 -0.9992343 0.9047669 -0.01666438 -0.4255811 0.1322194 -0.2565476 -0.9574453 0.9350054 -0.09178608 -0.3425496 0.9989374 -0.01192867 -0.04451829 0.9904778 -0.03563237 -0.1329815 0 -0.2588195 -0.9659258 0 -0.03912699 -0.9992343 1 4.51707e-7 0 0 -0.9992343 0.0391258 0 0.9992343 -0.03912717 -1 0 0 -1 0 0 -1 0 0 1 0 0 1 0 0 1 0 0 1 0 0</float_array>
          <technique_common>
            <accessor source="#Circle_006-mesh-normals-array" count="511" stride="3">
              <param name="X" type="float"/>
              <param name="Y" type="float"/>
              <param name="Z" type="float"/>
            </accessor>
          </technique_common>
        </source>
        <source id="Circle_006-mesh-map-0">
          <float_array id="Circle_006-mesh-map-0-array" count="3516">0 0 0 0 0 0 0 0 0 0 0 0 0 0 0 0 0 0 0 0 0 0 0 0 0 0 0 0 0 0 0 0 0 0 0 0 0 0 0 0 0 0 0 0 0 0 0 0 0 0 0 0 0 0 0 0 0 0 0 0 0 0 0 0 0 0 0 0 0 0 0 0 0 0 0 0 0 0 0 0 0 0 0 0 0 0 0 0 0 0 0 0 0 0 0 0 0 0 0 0 0 0 0 0 0 0 0 0 0 0 0 0 0 0 0 0 0 0 0 0 0 0 0 0 0 0 0 0 0 0 0 0 0 0 0 0 0 0 0 0 0 0 0 0 0 0 0 0 0 0 0 0 0 0 0 0 0 0 0 0 0 0 0 0 0 0 0 0 0 0 0 0 0 0 0 0 0 0 0 0 0 0 0 0 0 0 0 0 0 0 0 0 0 0 0 0 0 0 0 0 0 0 0 0 0 0 0 0 0 0 0 0 0 0 0 0 0 0 0 0 0 0 0 0 0 0 0 0 0 0 0 0 0 0 0 0 0 0 0 0 0 0 0 0 0 0 0 0 0 0 0 0 0 0 0 0 0 0 0 0 0 0 0 0 0 0 0 0 0 0 0 0 0 0 0 0 0 0 0 0 0 0 0 0 0 0 0 0 0 0 0 0 0 0 0 0 0 0 0 0 0 0 0 0 0 0 0 0 0 0 0 0 0 0 0 0 0 0 0 0 0 0 0 0 0 0 0 0 0 0 0 0 0 0 0 0 0 0 0 0 0 0 0 0 0 0 0 0 0 0 0 0 0 0 0 0 0 0 0 0 0 0 0 0 0 0 0 0 0 0 0 0 0 0 0 0 0 0 0 0 0 0 0 0 0 0 0 0 0 0 0 0 0 0 0 0 0 0 0 0 0 0 0 0 0 0 0 0 0 0 0 0 0 0 0 0 0 0 0 0 0 0 0 0 0 0 0 0 0 0 0 0 0 0 0 0 0 0 0 0 0 0 0 0 0 0 0 0 0 0 0 0 0 0 0 0 0 0 0 0 0 0 0 0 0 0 0 0 0 0 0 0 0 0 0 0 0 0 0 0 0 0 0 0 0 0 0 0 0 0 0 0 0 0 0 0 0 0 0 0 0 0 0 0 0 0 0 0 0 0 0 0 0 0 0 0 0 0 0 0 0 0 0 0 0 0 0 0 0 0 0 0 0 0 0 0 0 0 0 0 0 0 0 0 0 0 0 0 0 0 0 0 0 0 0 0 0 0 0 0 0 0 0 0 0 0 0 0 0 0 0 0 0 0 0 0 0 0 0 0 0 0 0 0 0 0 0 0 0 0 0 0 0 0 0 0 0 0 0 0 0 0 0 0 0 0 0 0 0 0 0 0 0 0 0 0 0 0 0 0 0 0 0 0 0 0 0 0 0 0 0 0 0 0 0 0 0 0 0 0 0 0 0 0 0 0 0 0 0 0 0 0 0 0 0 0 0 0 0 0 0 0 0 0 0 0 0 0 0 0 0 0 0 0 0 0 0 0 0 0 0 0 0 0 0 0 0 0 0 0 0 0 0 0 0 0 0 0 0 0 0 0 0 0 0 0 0 0 0 0 0 0 0 0 0 0 0 0 0 0 0 0 0 0 0 0 0 0 0 0 0 0 0 0 0 0 0 0 0 0 0 0 0 0 0 0 0 0 0 0 0 0 0 0 0 0 0 0 0 0 0 0 0 0 0 0 0 0 0 0 0 0 0 0 0 0 0 0 0 0 0 0 0 0 0 0 0 0 0 0 0 0 0 0 0 0 0 0 0 0 0 0 0 0 0 0 0 0 0 0 0 0 0 0 0 0 0 0 0 0 0 0 0 0 0 0 0 0 0 0 0 0 0 0 0 0 0 0 0 0 0 0 0 0 0 0 0 0 0 0 0 0 0 0 0 0 0 0 0 0 0 0 0 0 0 0 0 0 0 0 0 0 0 0 0 0 0 0 0 0 0 0 0 0 0 0 0 0 0 0 0 0 0 0 0 0 0 0 0 0 0 0 0 0 0 0 0 0 0 0 0 0 0 0 0 0 0 0 0 0 0 0 0 0 0 0 0 0 0 0 0 0 0 0 0 0 0 0 0 0 0 0 0 0 0 0 0 0 0 0 0 0 0 0 0 0 0 0 0 0 0 0 0 0 0 0 0 0 0 0 0 0 0 0 0 0 0 0 0 0 0 0 0 0 0 0 0 0 0 0 0 0 0 0 0 0 0 0 0 0 0 0 0 0 0 0 0 0 0 0 0 0 0 0 0 0 0 0 0 0 0 0 0 0 0 0 0 0 0 0 0 0 0 0 0 0 0 0 0 0 0 0 0 0 0 0 0 0 0 0 0 0 0 0 0 0 0 0 0 0 0 0 0 0 0 0 0 0 0 0 0 0 0 0 0 0 0 0 0 0 0 0 0 0 0 0 0 0 0 0 0 0 0 0 0 0 0 0 0 0 0 0 0 0 0 0 0 0 0 0 0 0 0 0 0 0 0 0 0 0 0 0 0 0 0 0 0 0 0 0 0 0 0 0 0 0 0 0 0 0 0 0 0 0 0 0 0 0 0 0 0 0 0 0 0 0 0 0 0 0 0 0 0 0 0 0 0 0 0 0 0 0 0 0 0 0 0 0 0 0 0 0 0 0 0 0 0 0 0 0 0 0 0 0 0 0 0 0 0 0 0 0 0 0 0 0 0 0 0 0 0 0 0 0 0 0 0 0 0 0 0 0 0 0 0 0 0 0 0 0 0 0 0 0 0 0 0 0 0 0 0 0 0 0 0 0 0 0 0 0 0 0 0 0 0 0 0 0 0 0 0 0 0 0 0 0 0 0 0 0 0 0 0 0 0 0 0 0 0 0 0 0 0 0 0 0 0 0 0 0 0 0 0 0 0 0 0 0 0 0 0 0 0 0 0 0 0 0 0 0 0 0 0 0 0 0 0 0 0 0 0 0 0 0 0 0 0 0 0 0 0 0 0 0 0 0 0 0 0 0 0 0 0 0 0 0 0 0 0 0 0 0 0 0 0 0 0 0 0 0 0 0 0 0 0 0 0 0 0 0 0 0 0 0 0 0 0 0 0 0 0 0 0 0 0 0 0 0 0 0 0 0 0 0 0 0 0 0 0 0 0 0 0 0 0 0 0 0 0 0 0 0 0 0 0 0 0 0 0 0 0 0 0 0 0 0 0 0 0 0 0 0 0 0 0 0 0 0 0 0 0 0 0 0 0 0 0 0 0 0 0 0 0 0 0 0 0 0 0 0 0 0 0 0 0 0 0 0 0 0 0 0 0 0 0 0 0 0 0 0 0 0 0 0 0 0 0 0 0 0 0 0 0 0 0 0 0 0 0 0 0 0 0 0 0 0 0 0 0 0 0 0 0 0 0 0 0 0 0 0 0 0 0 0 0 0 0 0 0 0 0 0 0 0 0 0 0 0 0 0 0 0 0 0 0 0 0 0 0 0 0 0 0 0 0 0 0 0 0 0 0 0 0 0 0 0 0 0 0 0 0 0 0 0 0 0 0 0 0 0 0 0 0 0 0 0 0 0 0 0 0 0 0 0 0 0 0 0 0 0 0 0 0 0 0 0 0 0 0 0 0 0 0 0 0 0 0 0 0 0 0 0 0 0 0 0 0 0 0 0 0 0 0 0 0 0 0 0 0 0 0 0 0 0 0 0 0 0 0 0 0 0 0 0 0 0 0 0 0 0 0 0 0 0 0 0 0 0 0 0 0 0 0 0 0 0 0 0 0 0 0 0 0 0 0 0 0 0 0 0 0 0 0 0 0 0 0 0 0 0 0 0 0 0 0 0 0 0 0 0 0 0 0 0 0 0 0 0 0 0 0 0 0 0 0 0 0 0 0 0 0 0 0 0 0 0 0 0 0 0 0 0 0 0 0 0 0 0 0 0 0 0 0 0 0 0 0 0 0 0 0 0 0 0 0 0 0 0 0 0 0 0 0 0 0 0 0 0 0 0 0 0 0 0 0 0 0 0 0 0 0 0 0 0 0 0 0 0 0 0 0 0 0 0 0 0 0 0 0 0 0 0 0 0 0 0 0 0 0 0 0 0 0 0 0 0 0 0 0 0 0 0 0 0 0 0 0 0 0 0 0 0 0 0 0 0 0 0 0 0 0 0 0 0 0 0 0 0 0 0 0 0 0 0 0 0 0 0 0 0 0 0 0 0 0 0 0 0 0 0 0 0 0 0 0 0 0 0 0 0 0 0 0 0 0 0 0 0 0 0 0 0 0 0 0 0 0 0 0 0 0 0 0 0 0 0 0 0 0 0 0 0 0 0 0 0 0 0 0 0 0 0 0 0 0 0 0 0 0 0 0 0 0 0 0 0 0 0 0 0 0 0 0 0 0 0 0 0 0 0 0 0 0 0 0 0 0 0 0 0 0 0 0 0 0 0 0 0 0 0 0 0 0 0 0 0 0 0 0 0 0 0 0 0 0 0 0 0 0 0 0 0 0 0 0 0 0 0 0 0 0 0 0 0 0 0 0 0 0 0 0 0 0 0 0 0 0 0 0 0 0 0 0 0 0 0 0 0 0 0 0 0 0 0 0 0 0 0 0 0 0 0 0 0 0 0 0 0 0 0 0 0 0 0 0 0 0 0 0 0 0 0 0 0 0 0 0 0 0 0 0 0 0 0 0 0 0 0 0 0 0 0 0 0 0 0 0 0 0 0 0 0 0 0 0 0 0 0 0 0 0 0 0 0 0 0 0 0 0 0 0 0 0 0 0 0 0 0 0 0 0 0 0 0 0 0 0 0 0 0 0 0 0 0 0 0 0 0 0 0 0 0 0 0 0 0 0 0 0 0 0 0 0 0 0 0 0 0 0 0 0 0 0 0 0 0 0 0 0 0 0 0 0 0 0 0 0 0 0 0 0 0 0 0 0 0 0 0 0 0 0 0 0 0 0 0 0 0 0 0 0 0 0 0 0 0 0 0 0 0 0 0 0 0 0 0 0 0 0 0 0 0 0 0 0 0 0 0 0 0 0 0 0 0 0 0 0 0 0 0 0 0 0 0 0 0 0 0 0 0 0 0 0 0 0 0 0 0 0 0 0 0 0 0 0 0 0 0 0 0 0 0 0 0 0 0 0 0 0 0 0 0 0 0 0 0 0 0 0 0 0 0 0 0 0 0 0 0 0 0 0 0 0 0 0 0 0 0 0 0 0 0 0 0 0 0 0 0 0 0 0 0 0 0 0 0 0 0 0 0 0 0 0 0 0 0 0 0 0 0 0 0 0 0 0 0 0 0 0 0 0 0 0 0 0 0 0 0 0 0 0 0 0 0 0 0 0 0 0 0 0 0 0 0 0 0 0 0 0 0 0 0 0 0 0 0 0 0 0 0 0 0 0 0 0 0 0 0 0 0 0 0 0 0 0 0 0 0 0 0 0 0 0 0 0 0 0 0 0 0 0 0 0 0 0 0 0 0 0 0 0 0 0 0 0 0 0 0 0 0 0 0 0 0 0 0 0 0 0 0 0 0 0 0 0 0 0 0 0 0 0 0 0 0 0 0 0 0 0 0 0 0 0 0 0 0 0 0 0 0 0 0 0 0 0 0 0 0 0 0 0 0 0 0 0 0 0 0 0 0 0 0 0 0 0 0 0 0 0 0 0 0 0 0 0 0 0 0 0 0 0 0 0 0 0 0 0 0 0 0 0 0 0 0 0 0 0 0 0 0 0 0 0 0 0 0 0 0 0 0 0 0 0 0 0 0 0 0 0 0 0 0 0 0 0 0 0 0 0 0 0 0 0 0 0 0 0 0 0 0 0 0 0 0 0 0 0 0 0 0 0 0 0 0 0 0 0 0 0 0 0 0 0 0 0 0 0 0 0 0 0 0 0 0 0 0 0 0 0 0 0 0 0 0 0 0 0 0 0 0 0 0 0 0 0 0 0 0 0 0 0 0 0 0 0 0 0 0 0 0 0 0 0 0 0 0 0 0 0 0 0 0 0 0 0 0 0 0 0 0 0 0 0 0 0 0 0 0 0 0 0 0 0 0 0 0 0 0 0 0 0 0 0 0 0 0 0 0 0 0 0 0 0 0 0 0 0 0 0 0 0 0 0 0 0 0 0 0 0 0 0 0 0 0 0 0 0 0 0 0 0 0 0 0 0 0 0 0 0 0 0 0 0 0 0 0 0 0 0 0 0 0 0 0 0 0 0 0 0 0 0 0 0 0 0 0 0 0 0 0 0 0 0 0 0 0 0 0 0 0 0 0 0 0 0 0 0 0 0 0 0 0 0 0 0 0 0 0 0 0 0 0 0 0 0 0 0 0 0 0 0 0 0 0 0 0 0 0 0 0 0 0 0 0 0 0 0 0 0 0 0 0 0 0 0 0 0 0 0 0 0 0 0 0 0 0 0 0 0 0 0 0 0 0 0 0 0 0 0 0 0 0 0 0 0 0 0 0 0 0 0 0 0 0 0 0 0 0 0 0 0 0 0 0 0 0 0 0 0 0 0 0 0 0 0 0 0 0 0 0 0 0 0 0 0 0 0 0 0 0 0 0 0 0 0 0 0 0 0 0 0 0 0 0 0 0 0 0 0 0 0 0 0 0 0 0 0 0 0 0 0 0 0 0 0 0 0 0 0 0 0 0 0 0 0 0 0 0 0 0 0 0 0 0 0 0 0 0 0 0 0 0 0 0 0 0 0 0 0 0 0 0 0 0 0 0 0 0 0 0 0 0 0 0 0 0 0 0 0 0 0 0 0 0 0 0 0 0 0 0 0 0 0 0 0 0 0 0 0 0 0 0 0 0 0 0 0 0 0 0 0 0 0 0 0 0 0 0 0 0 0 0 0 0 0 0 0 0 0 0 0 0 0 0 0 0 0 0 0 0 0 0 0 0 0 0 0 0 0 0 0 0 0 0 0 0 0 0 0 0 0 0 0 0 0 0 0 0 0 0 0 0 0 0 0 0 0 0 0 0 0 0 0 0 0 0 0 0 0 0 0 0 0 0 0 0 0 0 0 0 0 0 0 0 0 0 0 0 0 0 0 0 0 0 0 0 0 0 0 0 0 0 0 0 0 0 0 0 0 0 0 0 0 0 0 0 0 0 0 0 0 0 0 0 0 0 0 0 0 0 0 0 0 0 0 0 0 0 0 0 0 0 0 0 0 0 0 0 0 0 0 0 0 0 0 0 0 0 0 0 0 0 0 0 0 0 0 0 0 0 0 0 0 0 0 0 0 0 0 0 0 0 0 0 0 0 0 0 0 0 0 0 0 0 0 0 0 0 0 0 0 0 0 0 0 0 0 0 0 0 0 0 0 0 0 0 0 0 0 0 0 0 0 0 0 0 0 0 0 0 0 0 0 0 0 0 0 0 0 0 0 0 0 0 0 0 0 0 0 0 0 0 0 0 0 0 0 0 0 0 0 0 0 0 0 0 0 0 0 0 0 0 0 0 0 0 0 0 0 0 0 0 0 0 0 0 0 0 0 0 0 0 0 0 0 0 0 0 0 0 0 0 0 0 0 0 0 0 0 0 0 0 0 0 0 0 0 0 0 0 0 0 0 0 0 0 0 0 0 0 0 0 0 0 0 0 0 0 0 0 0 0 0 0 0 0 0 0 0 0 0 0 0 0 0 0 0 0 0 0 0 0 0 0 0 0 0 0 0 0 0 0 0 0 0 0 0 0 0 0 0 0 0 0 0 0 0 0 0 0 0 0 0 0 0 0 0 0 0 0 0 0 0 0 0 0 0 0 0 0 0 0 0 0 0 0 0 0 0 0 0 0 0 0 0 0 0 0 0 0 0 0 0 0 0 0 0 0 0 0 0 0 0 0 0 0 0 0 0 0 0 0 0 0 0 0 0 0 0 0 0 0 0 0 0 0</float_array>
          <technique_common>
            <accessor source="#Circle_006-mesh-map-0-array" count="1758" stride="2">
              <param name="S" type="float"/>
              <param name="T" type="float"/>
            </accessor>
          </technique_common>
        </source>
        <vertices id="Circle_006-mesh-vertices">
          <input semantic="POSITION" source="#Circle_006-mesh-positions"/>
        </vertices>
        <triangles count="586">
          <input semantic="VERTEX" source="#Circle_006-mesh-vertices" offset="0"/>
          <input semantic="NORMAL" source="#Circle_006-mesh-normals" offset="1"/>
          <input semantic="TEXCOORD" source="#Circle_006-mesh-map-0" offset="2" set="0"/>
          <p>5 0 0 28 0 1 4 0 2 15 1 3 40 1 4 16 1 5 4 2 6 17 2 7 5 2 8 11 3 9 13 3 10 0 3 11 1 4 12 14 4 13 2 4 14 8 5 15 283 5 16 282 5 17 5 6 18 18 6 19 6 6 20 2 7 21 15 7 22 3 7 23 9 8 24 22 8 25 10 8 26 7 9 27 18 9 28 19 9 29 4 10 30 15 10 31 16 10 32 10 11 33 23 11 34 11 11 35 0 12 36 12 12 37 1 12 38 8 13 39 19 13 40 20 13 41 27 14 42 28 14 43 26 14 44 11 15 45 25 15 46 35 15 47 2 16 48 24 16 49 1 16 50 282 17 51 33 17 52 284 17 53 6 18 54 29 18 55 5 18 56 3 19 57 26 19 58 2 19 59 9 20 60 34 20 61 33 20 62 6 21 63 31 21 64 30 21 65 4 22 66 27 22 67 3 22 68 10 23 69 35 23 70 34 23 71 1 24 72 25 24 73 0 24 74 8 25 75 31 25 76 7 25 77 43 26 78 54 26 79 55 26 80 23 27 81 46 27 82 47 27 83 13 28 84 36 28 85 12 28 86 19 29 87 44 29 88 20 29 89 16 30 90 41 30 91 17 30 92 13 31 93 47 31 94 37 31 95 12 32 96 38 32 97 14 32 98 20 33 99 285 33 100 283 33 101 17 34 102 42 34 103 18 34 104 14 35 105 39 35 106 15 35 107 22 36 108 45 36 109 46 36 110 18 37 111 43 37 112 19 37 113 55 38 114 66 38 115 67 38 116 39 39 117 52 39 118 40 39 119 47 40 120 58 40 121 59 40 122 37 41 123 48 41 124 36 41 125 44 42 126 55 42 127 56 42 128 41 43 129 52 43 130 53 43 131 37 44 132 59 44 133 49 44 134 36 45 135 50 45 136 38 45 137 44 46 138 286 46 139 285 46 140 42 47 141 53 47 142 54 47 143 39 48 144 50 48 145 51 48 146 45 49 147 58 49 148 46 49 149 64 50 150 75 50 151 76 50 152 51 51 153 64 51 154 52 51 155 58 52 156 71 52 157 59 52 158 49 53 159 60 53 160 48 53 161 55 54 162 68 54 163 56 54 164 52 55 165 65 55 166 53 55 167 59 56 168 61 56 169 49 56 170 48 57 171 62 57 172 50 57 173 56 58 174 287 58 175 286 58 176 53 59 177 66 59 178 54 59 179 50 60 180 63 60 181 51 60 182 57 61 183 70 61 184 58 61 185 79 62 186 91 62 187 80 62 188 71 63 189 82 63 190 83 63 191 60 64 192 73 64 193 72 64 194 67 65 195 80 65 196 68 65 197 65 66 198 76 66 199 77 66 200 71 67 201 73 67 202 61 67 203 60 68 204 74 68 205 62 68 206 68 69 207 288 69 208 287 69 209 65 70 210 78 70 211 66 70 212 62 71 213 75 71 214 63 71 215 70 72 216 81 72 217 82 72 218 67 73 219 78 73 220 79 73 221 85 74 222 95 74 223 84 74 224 77 75 225 87 75 226 88 75 227 83 76 228 85 76 229 73 76 230 72 77 231 86 77 232 74 77 233 80 78 234 289 78 235 288 78 236 77 79 237 89 79 238 78 79 239 75 80 240 109 80 241 76 80 242 82 81 243 92 81 244 93 81 245 78 82 246 90 82 247 79 82 248 76 83 249 112 83 250 87 83 251 82 84 252 94 84 253 83 84 254 72 85 255 85 85 256 84 85 257 90 86 258 103 86 259 91 86 260 87 87 261 100 87 262 88 87 263 94 88 264 96 88 265 85 88 266 84 89 267 97 89 268 86 89 269 290 90 270 294 90 271 103 90 272 88 91 273 101 91 274 89 91 275 115 92 276 119 92 277 98 92 278 93 93 279 104 93 280 105 93 281 89 94 282 102 94 283 90 94 284 86 95 285 97 95 286 114 95 287 93 96 288 106 96 289 94 96 290 109 83 291 127 83 292 112 83 293 118 97 294 123 97 295 116 97 296 116 98 297 111 98 298 114 98 299 117 99 300 127 99 301 125 99 302 111 100 303 86 100 304 114 100 305 86 97 306 108 97 307 74 97 308 98 101 309 118 101 310 114 101 311 75 102 312 108 102 313 107 102 314 118 103 315 116 103 316 114 103 317 107 104 318 121 104 319 120 104 320 112 105 321 115 105 322 87 105 323 115 106 324 99 106 325 87 106 326 115 107 327 117 107 328 119 107 329 120 108 330 131 108 331 110 108 332 125 109 333 137 109 334 135 109 335 123 110 336 140 110 337 133 110 338 123 111 339 134 111 340 124 111 341 107 112 342 122 112 343 109 112 344 113 90 345 130 90 346 118 90 347 113 113 348 128 113 349 129 113 350 111 97 351 121 97 352 108 97 353 116 90 354 124 90 355 111 90 356 117 83 357 128 83 358 119 83 359 139 114 360 148 114 361 149 114 362 110 115 363 141 115 364 126 115 365 135 90 366 147 90 367 145 90 368 140 116 369 143 116 370 133 116 371 129 117 372 138 117 373 139 117 374 122 118 375 137 118 376 127 118 377 129 119 378 140 119 379 130 119 380 120 120 381 132 120 382 122 120 383 121 121 384 134 121 385 131 121 386 125 122 387 138 122 388 128 122 389 146 123 390 153 123 391 143 123 392 126 124 393 151 124 394 136 124 395 145 125 396 149 125 397 148 125 398 143 126 399 149 126 400 146 126 401 132 83 402 147 83 403 137 83 404 139 127 405 150 127 406 140 127 407 110 128 408 142 128 409 132 128 410 134 97 411 141 97 412 131 97 413 135 129 414 148 129 415 138 129 416 133 90 417 144 90 418 134 90 419 144 130 420 151 130 421 141 130 422 146 131 423 155 131 424 156 131 425 126 132 426 152 132 427 142 132 428 145 133 429 157 133 430 155 133 431 147 134 432 152 134 433 157 134 434 143 135 435 154 135 436 144 135 437 185 136 438 160 136 439 161 136 440 179 90 441 178 90 442 180 90 443 160 137 444 173 137 445 161 137 446 179 138 447 168 138 448 167 138 449 176 139 450 165 139 451 164 139 452 249 140 453 174 140 454 162 140 455 180 141 456 169 141 457 168 141 458 171 142 459 159 142 460 158 142 461 177 143 462 166 143 463 165 143 464 174 144 465 163 144 466 162 144 467 181 145 468 158 145 469 169 145 470 159 146 471 172 146 472 160 146 473 178 147 474 167 147 475 166 147 476 175 148 477 164 148 478 163 148 479 193 149 480 204 149 481 192 149 482 192 150 483 167 150 484 168 150 485 165 151 486 188 151 487 164 151 488 274 152 489 161 152 490 249 152 491 169 153 492 192 153 493 168 153 494 182 154 495 158 154 496 159 154 497 190 155 498 165 155 499 166 155 500 163 156 501 186 156 502 162 156 503 183 90 504 169 90 505 158 90 506 184 157 507 159 157 508 160 157 509 167 156 510 190 156 511 166 156 512 164 158 513 187 158 514 163 158 515 277 159 516 209 159 517 218 159 518 182 160 519 195 160 520 183 160 521 202 161 522 189 161 523 190 161 524 187 162 525 198 162 526 186 162 527 195 163 528 193 163 529 183 163 530 196 164 531 182 164 532 184 164 533 203 165 534 190 165 535 191 165 536 200 166 537 187 166 538 188 166 539 197 167 540 184 167 541 185 167 542 192 168 543 203 168 544 191 168 545 189 169 546 200 169 547 188 169 548 274 170 549 197 170 550 185 170 551 230 171 552 215 171 553 231 171 554 217 172 555 220 172 556 221 172 557 206 173 558 222 173 559 223 173 560 214 174 561 224 174 562 225 174 563 226 175 564 210 175 565 219 175 566 207 176 567 221 176 568 222 176 569 208 177 570 223 177 571 227 177 572 230 178 573 225 178 574 233 178 575 212 179 576 226 179 577 229 179 578 209 180 579 227 180 580 218 180 581 237 181 582 232 181 583 231 181 584 213 182 585 229 182 586 224 182 587 224 183 588 200 183 589 201 183 590 203 184 591 235 184 592 202 184 593 218 185 594 196 185 595 197 185 596 229 186 597 199 186 598 200 186 599 243 187 600 215 187 601 230 187 602 196 188 603 223 188 604 194 188 605 222 189 606 205 189 607 195 189 608 199 190 609 219 190 610 198 190 611 202 191 612 224 191 613 201 191 614 223 192 615 195 192 616 194 192 617 221 193 618 204 193 619 205 193 620 275 194 621 218 194 622 197 194 623 216 195 624 232 195 625 220 195 626 239 196 627 233 196 628 225 196 629 231 171 630 214 171 631 230 171 632 241 197 633 250 197 634 240 197 635 234 198 636 244 198 637 235 198 638 235 199 639 248 199 640 239 199 641 242 200 642 253 200 643 243 200 644 233 201 645 243 201 646 230 201 647 202 202 648 239 202 649 225 202 650 236 203 651 203 203 652 204 203 653 215 204 654 237 204 655 231 204 656 240 205 657 204 205 658 220 205 659 232 206 660 240 206 661 220 206 662 256 207 663 228 207 664 245 207 665 259 208 666 252 208 667 248 208 668 251 209 669 260 209 670 250 209 671 228 210 672 255 210 673 244 210 674 248 211 675 242 211 676 239 211 677 245 212 678 234 212 679 236 212 680 250 213 681 236 213 682 240 213 683 246 97 684 241 97 685 237 97 686 238 214 687 246 214 688 237 214 689 257 215 690 270 215 691 261 215 692 260 216 693 265 216 694 256 216 695 265 217 696 254 217 697 256 217 698 268 218 699 262 218 700 259 218 701 260 219 702 245 219 703 250 219 704 257 220 705 251 220 706 246 220 707 247 221 708 257 221 709 246 221 710 263 222 711 247 222 712 253 222 713 252 223 714 263 223 715 253 223 716 244 224 717 259 224 718 248 224 719 266 225 720 136 225 721 270 225 722 267 226 723 271 226 724 136 226 725 258 227 726 266 227 727 257 227 728 272 228 729 258 228 730 263 228 731 271 229 732 263 229 733 262 229 734 264 230 735 259 230 736 255 230 737 254 231 738 264 231 739 255 231 740 261 232 741 269 232 742 260 232 743 156 233 744 265 233 745 153 233 746 154 234 747 153 234 748 265 234 749 151 235 750 265 235 751 269 235 752 156 236 753 155 236 754 264 236 755 155 237 756 157 237 757 264 237 758 152 238 759 264 238 760 157 238 761 268 239 762 152 239 763 271 239 764 152 240 765 136 240 766 271 240 767 151 241 768 270 241 769 136 241 770 253 242 771 238 242 772 243 242 773 198 243 774 277 243 775 275 243 776 186 244 777 275 244 778 274 244 779 278 245 780 219 245 781 210 245 782 162 90 783 274 90 784 249 90 785 161 246 786 273 246 787 249 246 788 278 247 789 280 247 790 279 247 791 279 90 792 277 90 793 219 90 794 276 248 795 278 248 796 210 248 797 280 249 798 276 249 799 277 249 800 177 90 801 180 90 802 178 90 803 176 90 804 181 90 805 177 90 806 171 90 807 175 90 808 170 90 809 170 90 810 174 90 811 172 90 812 173 171 813 174 171 814 273 171 815 216 171 816 213 171 817 214 171 818 217 171 819 212 171 820 213 171 821 211 171 822 207 171 823 206 171 824 210 171 825 206 171 826 208 171 827 209 171 828 210 171 829 208 171 830 289 250 831 104 250 832 92 250 833 288 251 834 92 251 835 81 251 836 287 252 837 81 252 838 69 252 839 57 253 840 287 253 841 69 253 842 45 254 843 286 254 844 57 254 845 21 255 846 285 255 847 45 255 848 282 256 849 32 256 850 8 256 851 282 257 852 21 257 853 9 257 854 292 258 855 293 258 856 291 258 857 91 259 858 291 259 859 289 259 860 103 260 861 292 260 862 91 260 863 289 261 864 293 261 865 290 261 866 98 262 867 97 262 868 99 262 869 97 90 870 100 90 871 99 90 872 95 90 873 101 90 874 100 90 875 101 263 876 106 263 877 102 263 878 102 264 879 105 264 880 103 264 881 103 97 882 104 97 883 290 97 884 26 265 885 29 265 886 24 265 887 29 171 888 25 171 889 24 171 890 35 266 891 30 266 892 31 266 893 34 267 894 31 267 895 32 267 896 33 83 897 32 83 898 284 83 899 5 268 900 29 268 901 28 268 902 15 269 903 39 269 904 40 269 905 4 270 906 16 270 907 17 270 908 11 271 909 23 271 910 13 271 911 1 272 912 12 272 913 14 272 914 8 273 915 20 273 916 283 273 917 5 274 918 17 274 919 18 274 920 2 275 921 14 275 922 15 275 923 9 276 924 21 276 925 22 276 926 7 277 927 6 277 928 18 277 929 4 278 930 3 278 931 15 278 932 10 279 933 22 279 934 23 279 935 0 280 936 13 280 937 12 280 938 8 13 939 7 13 940 19 13 941 11 281 942 0 281 943 25 281 944 2 282 945 26 282 946 24 282 947 282 283 948 9 283 949 33 283 950 6 284 951 30 284 952 29 284 953 3 285 954 27 285 955 26 285 956 9 286 957 10 286 958 34 286 959 6 287 960 7 287 961 31 287 962 4 288 963 28 288 964 27 288 965 10 289 966 11 289 967 35 289 968 1 290 969 24 290 970 25 290 971 8 291 972 32 291 973 31 291 974 43 292 975 42 292 976 54 292 977 23 293 978 22 293 979 46 293 980 13 294 981 37 294 982 36 294 983 19 295 984 43 295 985 44 295 986 16 296 987 40 296 988 41 296 989 13 297 990 23 297 991 47 297 992 12 298 993 36 298 994 38 298 995 20 299 996 44 299 997 285 299 998 17 300 999 41 300 1000 42 300 1001 14 301 1002 38 301 1003 39 301 1004 22 302 1005 21 302 1006 45 302 1007 18 303 1008 42 303 1009 43 303 1010 55 304 1011 54 304 1012 66 304 1013 39 305 1014 51 305 1015 52 305 1016 47 306 1017 46 306 1018 58 306 1019 37 307 1020 49 307 1021 48 307 1022 44 308 1023 43 308 1024 55 308 1025 41 309 1026 40 309 1027 52 309 1028 37 310 1029 47 310 1030 59 310 1031 36 311 1032 48 311 1033 50 311 1034 44 312 1035 56 312 1036 286 312 1037 42 313 1038 41 313 1039 53 313 1040 39 314 1041 38 314 1042 50 314 1043 45 315 1044 57 315 1045 58 315 1046 64 316 1047 63 316 1048 75 316 1049 51 317 1050 63 317 1051 64 317 1052 58 318 1053 70 318 1054 71 318 1055 49 319 1056 61 319 1057 60 319 1058 55 320 1059 67 320 1060 68 320 1061 52 321 1062 64 321 1063 65 321 1064 59 322 1065 71 322 1066 61 322 1067 48 323 1068 60 323 1069 62 323 1070 56 324 1071 68 324 1072 287 324 1073 53 325 1074 65 325 1075 66 325 1076 50 326 1077 62 326 1078 63 326 1079 57 327 1080 69 327 1081 70 327 1082 79 328 1083 90 328 1084 91 328 1085 71 329 1086 70 329 1087 82 329 1088 60 330 1089 61 330 1090 73 330 1091 67 331 1092 79 331 1093 80 331 1094 65 332 1095 64 332 1096 76 332 1097 71 333 1098 83 333 1099 73 333 1100 60 334 1101 72 334 1102 74 334 1103 68 335 1104 80 335 1105 288 335 1106 65 336 1107 77 336 1108 78 336 1109 62 337 1110 74 337 1111 75 337 1112 70 338 1113 69 338 1114 81 338 1115 67 339 1116 66 339 1117 78 339 1118 85 340 1119 96 340 1120 95 340 1121 77 341 1122 76 341 1123 87 341 1124 83 342 1125 94 342 1126 85 342 1127 72 343 1128 84 343 1129 86 343 1130 80 344 1131 91 344 1132 289 344 1133 77 345 1134 88 345 1135 89 345 1136 75 80 1137 107 80 1138 109 80 1139 82 346 1140 81 346 1141 92 346 1142 78 347 1143 89 347 1144 90 347 1145 76 83 1146 109 83 1147 112 83 1148 82 348 1149 93 348 1150 94 348 1151 72 349 1152 73 349 1153 85 349 1154 90 350 1155 102 350 1156 103 350 1157 87 351 1158 99 351 1159 100 351 1160 94 352 1161 106 352 1162 96 352 1163 84 353 1164 95 353 1165 97 353 1166 290 354 1167 293 354 1168 294 354 1169 88 355 1170 100 355 1171 101 355 1172 113 356 1173 98 356 1174 119 356 1175 98 357 1176 99 357 1177 115 357 1178 93 358 1179 92 358 1180 104 358 1181 89 359 1182 101 359 1183 102 359 1184 93 360 1185 105 360 1186 106 360 1187 109 83 1188 122 83 1189 127 83 1190 118 97 1191 130 97 1192 123 97 1193 117 90 1194 112 90 1195 127 90 1196 86 97 1197 111 97 1198 108 97 1199 114 361 1200 97 361 1201 98 361 1202 98 362 1203 113 362 1204 118 362 1205 75 363 1206 74 363 1207 108 363 1208 107 364 1209 108 364 1210 121 364 1211 115 365 1212 112 365 1213 117 365 1214 120 366 1215 121 366 1216 131 366 1217 125 367 1218 127 367 1219 137 367 1220 123 368 1221 130 368 1222 140 368 1223 123 369 1224 133 369 1225 134 369 1226 107 370 1227 120 370 1228 122 370 1229 113 371 1230 129 371 1231 130 371 1232 113 90 1233 119 90 1234 128 90 1235 111 97 1236 124 97 1237 121 97 1238 116 372 1239 123 372 1240 124 372 1241 117 83 1242 125 83 1243 128 83 1244 139 373 1245 138 373 1246 148 373 1247 110 374 1248 131 374 1249 141 374 1250 135 90 1251 137 90 1252 147 90 1253 140 375 1254 150 375 1255 143 375 1256 129 376 1257 128 376 1258 138 376 1259 122 377 1260 132 377 1261 137 377 1262 129 378 1263 139 378 1264 140 378 1265 120 379 1266 110 379 1267 132 379 1268 121 380 1269 124 380 1270 134 380 1271 125 381 1272 135 381 1273 138 381 1274 146 382 1275 156 382 1276 153 382 1277 126 383 1278 141 383 1279 151 383 1280 145 384 1281 146 384 1282 149 384 1283 143 385 1284 150 385 1285 149 385 1286 132 83 1287 142 83 1288 147 83 1289 139 386 1290 149 386 1291 150 386 1292 110 128 1293 126 128 1294 142 128 1295 134 97 1296 144 97 1297 141 97 1298 135 387 1299 145 387 1300 148 387 1301 133 90 1302 143 90 1303 144 90 1304 144 388 1305 154 388 1306 151 388 1307 146 389 1308 145 389 1309 155 389 1310 126 390 1311 136 390 1312 152 390 1313 145 391 1314 147 391 1315 157 391 1316 147 83 1317 142 83 1318 152 83 1319 143 392 1320 153 392 1321 154 392 1322 185 393 1323 184 393 1324 160 393 1325 160 394 1326 172 394 1327 173 394 1328 179 395 1329 180 395 1330 168 395 1331 176 396 1332 177 396 1333 165 396 1334 249 397 1335 273 397 1336 174 397 1337 180 398 1338 181 398 1339 169 398 1340 171 12 1341 170 12 1342 159 12 1343 177 399 1344 178 399 1345 166 399 1346 174 400 1347 175 400 1348 163 400 1349 181 401 1350 171 401 1351 158 401 1352 159 402 1353 170 402 1354 172 402 1355 178 403 1356 179 403 1357 167 403 1358 175 404 1359 176 404 1360 164 404 1361 193 405 1362 205 405 1363 204 405 1364 192 406 1365 191 406 1366 167 406 1367 165 90 1368 189 90 1369 188 90 1370 274 90 1371 185 90 1372 161 90 1373 169 407 1374 193 407 1375 192 407 1376 182 408 1377 183 408 1378 158 408 1379 190 409 1380 189 409 1381 165 409 1382 163 90 1383 187 90 1384 186 90 1385 183 410 1386 193 410 1387 169 410 1388 184 90 1389 182 90 1390 159 90 1391 167 411 1392 191 411 1393 190 411 1394 164 412 1395 188 412 1396 187 412 1397 277 413 1398 276 413 1399 209 413 1400 182 414 1401 194 414 1402 195 414 1403 202 415 1404 201 415 1405 189 415 1406 187 416 1407 199 416 1408 198 416 1409 195 417 1410 205 417 1411 193 417 1412 196 418 1413 194 418 1414 182 418 1415 203 419 1416 202 419 1417 190 419 1418 200 420 1419 199 420 1420 187 420 1421 197 421 1422 196 421 1423 184 421 1424 192 422 1425 204 422 1426 203 422 1427 189 423 1428 201 423 1429 200 423 1430 274 424 1431 275 424 1432 197 424 1433 217 425 1434 216 425 1435 220 425 1436 206 426 1437 207 426 1438 222 426 1439 214 427 1440 213 427 1441 224 427 1442 226 428 1443 211 428 1444 210 428 1445 207 429 1446 217 429 1447 221 429 1448 208 430 1449 206 430 1450 223 430 1451 230 431 1452 214 431 1453 225 431 1454 212 179 1455 211 179 1456 226 179 1457 209 432 1458 208 432 1459 227 432 1460 237 433 1461 241 433 1462 232 433 1463 213 182 1464 212 182 1465 229 182 1466 224 434 1467 229 434 1468 200 434 1469 203 435 1470 234 435 1471 235 435 1472 218 436 1473 227 436 1474 196 436 1475 229 437 1476 226 437 1477 199 437 1478 243 438 1479 238 438 1480 215 438 1481 196 439 1482 227 439 1483 223 439 1484 222 440 1485 221 440 1486 205 440 1487 199 441 1488 226 441 1489 219 441 1490 202 442 1491 225 442 1492 224 442 1493 223 443 1494 222 443 1495 195 443 1496 221 444 1497 220 444 1498 204 444 1499 275 445 1500 277 445 1501 218 445 1502 216 195 1503 231 195 1504 232 195 1505 239 446 1506 242 446 1507 233 446 1508 231 171 1509 216 171 1510 214 171 1511 241 447 1512 251 447 1513 250 447 1514 234 448 1515 228 448 1516 244 448 1517 235 449 1518 244 449 1519 248 449 1520 242 450 1521 252 450 1522 253 450 1523 233 451 1524 242 451 1525 243 451 1526 202 452 1527 235 452 1528 239 452 1529 236 453 1530 234 453 1531 203 453 1532 215 454 1533 238 454 1534 237 454 1535 240 455 1536 236 455 1537 204 455 1538 232 456 1539 241 456 1540 240 456 1541 256 457 1542 254 457 1543 228 457 1544 259 458 1545 262 458 1546 252 458 1547 251 459 1548 261 459 1549 260 459 1550 228 460 1551 254 460 1552 255 460 1553 248 461 1554 252 461 1555 242 461 1556 245 462 1557 228 462 1558 234 462 1559 250 463 1560 245 463 1561 236 463 1562 246 464 1563 251 464 1564 241 464 1565 238 465 1566 247 465 1567 246 465 1568 257 466 1569 266 466 1570 270 466 1571 260 213 1572 269 213 1573 265 213 1574 265 467 1575 156 467 1576 254 467 1577 268 468 1578 271 468 1579 262 468 1580 260 469 1581 256 469 1582 245 469 1583 257 470 1584 261 470 1585 251 470 1586 247 471 1587 258 471 1588 257 471 1589 263 472 1590 258 472 1591 247 472 1592 252 473 1593 262 473 1594 263 473 1595 244 474 1596 255 474 1597 259 474 1598 266 475 1599 267 475 1600 136 475 1601 267 476 1602 272 476 1603 271 476 1604 258 477 1605 267 477 1606 266 477 1607 272 478 1608 267 478 1609 258 478 1610 271 479 1611 272 479 1612 263 479 1613 264 480 1614 268 480 1615 259 480 1616 254 481 1617 156 481 1618 264 481 1619 261 482 1620 270 482 1621 269 482 1622 151 483 1623 154 483 1624 265 483 1625 152 484 1626 268 484 1627 264 484 1628 151 485 1629 269 485 1630 270 485 1631 253 486 1632 247 486 1633 238 486 1634 198 487 1635 219 487 1636 277 487 1637 186 488 1638 198 488 1639 275 488 1640 278 245 1641 279 245 1642 219 245 1643 162 90 1644 186 90 1645 274 90 1646 161 489 1647 173 489 1648 273 489 1649 278 490 1650 281 490 1651 280 490 1652 279 90 1653 280 90 1654 277 90 1655 276 491 1656 281 491 1657 278 491 1658 280 492 1659 281 492 1660 276 492 1661 177 90 1662 181 90 1663 180 90 1664 176 90 1665 171 90 1666 181 90 1667 171 90 1668 176 90 1669 175 90 1670 170 90 1671 175 90 1672 174 90 1673 173 90 1674 172 90 1675 174 90 1676 216 171 1677 217 171 1678 213 171 1679 217 171 1680 207 171 1681 212 171 1682 211 171 1683 212 171 1684 207 171 1685 210 171 1686 211 171 1687 206 171 1688 209 90 1689 276 90 1690 210 90 1691 289 250 1692 290 250 1693 104 250 1694 288 493 1695 289 493 1696 92 493 1697 287 494 1698 288 494 1699 81 494 1700 57 495 1701 286 495 1702 287 495 1703 45 496 1704 285 496 1705 286 496 1706 21 497 1707 283 497 1708 285 497 1709 282 498 1710 284 498 1711 32 498 1712 282 499 1713 283 499 1714 21 499 1715 292 500 1716 294 500 1717 293 500 1718 91 501 1719 292 501 1720 291 501 1721 103 502 1722 294 502 1723 292 502 1724 289 503 1725 291 503 1726 293 503 1727 97 504 1728 95 504 1729 100 504 1730 95 505 1731 96 505 1732 101 505 1733 101 506 1734 96 506 1735 106 506 1736 102 90 1737 106 90 1738 105 90 1739 103 90 1740 105 90 1741 104 90 1742 26 171 1743 28 171 1744 29 171 1745 29 507 1746 30 507 1747 25 507 1748 35 508 1749 25 508 1750 30 508 1751 34 509 1752 35 509 1753 31 509 1754 33 510 1755 34 510 1756 32 510 1757</p>
        </triangles>
      </mesh>
    </geometry>
  </library_geometries>
  <library_visual_scenes>
    <visual_scene id="Scene" name="Scene">
      <node id="Circle_006" name="Circle.006" type="NODE">
        <matrix sid="transform">0.00999999 0 0 0 0 0.00999999 0 0 0 0 0.00999999 0 0 0 0 1</matrix>
        <instance_geometry url="#Circle_006-mesh" name="Circle.006"/>
      </node>
    </visual_scene>
  </library_visual_scenes>
  <scene>
    <instance_visual_scene url="#Scene"/>
  </scene>
</COLLADA>