<?xml version="1.0" encoding="utf-8"?>
<COLLADA xmlns="http://www.collada.org/2005/11/COLLADASchema" version="1.4.1" xmlns:xsi="http://www.w3.org/2001/XMLSchema-instance">
  <asset>
    <contributor>
      <author>Blender User</author>
      <authoring_tool>Blender 2.82.7 commit date:2020-02-12, commit time:16:20, hash:77d23b0bd76f</authoring_tool>
    </contributor>
    <created>2020-03-03T15:04:09</created>
    <modified>2020-03-03T15:04:09</modified>
    <unit name="meter" meter="1"/>
    <up_axis>Z_UP</up_axis>
  </asset>
  <library_effects/>
  <library_images/>
  <library_geometries>
    <geometry id="Cronstain-mesh" name="Cronstain">
      <mesh>
        <source id="Cronstain-mesh-positions">
          <float_array id="Cronstain-mesh-positions-array" count="654">0 -9.83506e-7 22.5 -8.610378 -9.08641e-7 20.78729 -15.9099 -6.95444e-7 15.9099 -20.78729 -3.76372e-7 8.610378 -22.5 0 -9.83506e-7 -20.78729 3.76372e-7 -8.61038 -15.9099 6.95444e-7 -15.9099 -8.610379 9.08641e-7 -20.78729 -3.39741e-6 9.83506e-7 -22.5 8.610373 9.08641e-7 -20.78729 15.9099 6.95444e-7 -15.90991 20.78729 3.76372e-7 -8.610381 22.5 0 2.6831e-7 20.78729 -3.76372e-7 8.610382 15.9099 -6.95444e-7 15.90991 8.610367 -9.08642e-7 20.7873 -8.610378 21.21189 20.78729 0 21.21188 22.5 -15.9099 21.21189 15.9099 -20.78729 21.21189 8.610378 -22.5 21.21189 -9.83506e-7 -20.78729 21.21189 -8.61038 -15.9099 21.21189 -15.9099 -8.610379 21.21189 -20.78729 -3.39741e-6 21.21189 -22.5 8.610373 21.21189 -20.78729 15.9099 21.21189 -15.90991 20.78729 21.21189 -8.610381 22.5 21.21189 2.6831e-7 20.78729 21.21189 8.610382 15.9099 21.21189 15.90991 8.610367 21.21189 20.7873 -8.610378 71.29967 20.78729 0 71.29967 22.5 -15.9099 71.29967 15.9099 -20.78729 71.29967 8.610378 -22.5 71.29967 -9.83506e-7 -20.78729 71.29967 -8.61038 -15.9099 71.29967 -15.9099 -8.610379 71.29967 -20.78729 -3.39741e-6 71.29967 -22.5 8.610373 71.29967 -20.78729 15.9099 71.29967 -15.90991 20.78729 71.29967 -8.610381 22.5 71.29967 2.6831e-7 20.78729 71.29967 8.610382 15.9099 71.29967 15.90991 8.610367 71.29967 20.7873 -8.610378 75.57265 20.78729 0 75.57265 22.5 -15.9099 75.57265 15.9099 -20.78729 75.57265 8.610378 -22.5 75.57265 -9.83506e-7 -20.78729 75.57265 -8.61038 -15.9099 75.57265 -15.9099 -8.610379 75.57265 -20.78729 -3.39741e-6 75.57265 -22.5 8.610373 75.57265 -20.78729 15.9099 75.57265 -15.90991 20.78729 75.57265 -8.610381 22.5 75.57265 2.6831e-7 20.78729 75.57265 8.610382 15.9099 75.57265 15.90991 8.610367 75.57265 20.7873 -15.9099 30.84237 15.9099 8.610373 30.84237 -20.78729 8.610367 30.84237 20.7873 -8.610378 30.84237 20.78729 0 30.84237 22.5 -3.39741e-6 30.84238 -22.5 -8.610379 30.84237 -20.78729 15.9099 30.84237 -15.90991 -20.78729 30.84237 8.610378 20.78729 30.84237 -8.610381 -22.5 30.84237 -9.83506e-7 22.5 30.84237 2.6831e-7 -20.78729 30.84237 -8.61038 20.78729 30.84237 8.610382 -15.9099 30.84237 -15.9099 15.9099 30.84237 15.90991 38.33932 30.84237 20.7873 38.33932 71.29967 20.7873 28.88553 30.84237 22.5 28.88553 71.29967 22.5 66.67569 71.29967 -20.78729 26.65255 71.29967 -22.5 66.56092 71.29967 -15.90991 65.13851 71.29967 -8.610381 62.22956 71.29967 2.6831e-7 56.76467 71.29967 8.610382 47.83177 71.29967 15.90991 66.67569 30.84237 -20.78729 26.65255 30.84238 -22.5 66.56092 30.84237 -15.90991 65.13851 30.84237 -8.610381 62.22956 30.84237 2.6831e-7 56.76467 30.84237 8.610382 47.83177 30.84237 15.90991 66.69747 71.29967 -22.90201 32.31864 71.29967 -24.61472 66.69747 30.84237 -22.90201 32.31864 30.84238 -24.61472 66.58983 71.29967 -26.91268 35.05145 71.29967 -28.62539 66.58983 30.84237 -26.91268 35.05145 30.84238 -28.62539 66.53944 71.29967 -31.45745 35.53937 71.29967 -31.51859 66.53944 30.84237 -31.45745 35.53937 30.84238 -31.51859 66.5845 71.29967 -54.3034 35.58443 71.29967 -54.36454 66.5845 30.84237 -54.3034 35.58443 30.84238 -54.36454 66.5845 71.29967 -69.17935 35.58443 71.29967 -69.24049 66.5845 30.84237 -69.17935 35.58443 30.84238 -69.24049 66.20868 70.96781 -73.81869 35.96024 70.96781 -73.87835 66.20868 31.17423 -73.81869 35.96024 31.17424 -73.87835 66.21984 68.98543 -79.47347 35.9714 68.98543 -79.53313 66.21984 33.15661 -79.47347 35.9714 33.15662 -79.53313 66.22941 65.45137 -84.32645 35.98097 65.45137 -84.38611 66.22941 36.69067 -84.32645 35.98097 36.69067 -84.38611 66.2359 61.08322 -87.61804 35.98746 61.08322 -87.6777 66.2359 41.05882 -87.61804 35.98746 41.05882 -87.6777 66.2389 58.06336 -89.13723 35.99046 58.06336 -89.19689 66.2389 44.07868 -89.13723 35.99046 44.07868 -89.19689 66.24082 54.65049 -90.10783 35.99237 54.65049 -90.16749 66.24082 47.49155 -90.10783 35.99237 47.49155 -90.16749 66.5845 63.90716 -54.3034 66.5845 37.64253 -54.3034 71.00978 71.29967 -69.22414 71.00978 30.84237 -69.22414 70.63397 70.96781 -73.86348 70.63397 31.17423 -73.86348 70.64512 68.98543 -79.51826 70.64512 33.15661 -79.51826 70.6547 65.45137 -84.37124 70.6547 36.69067 -84.37124 70.66119 61.08322 -87.66283 70.66119 41.05882 -87.66283 70.66419 58.06336 -89.18202 70.66419 44.07868 -89.18202 70.6661 54.65049 -90.15262 70.6661 47.49155 -90.15262 71.00978 63.90716 -54.34819 71.00978 37.64253 -54.34819 -23.00303 -1.31248e-7 -7.518748 -21.95614 3.14996e-7 -4.491497 -18.1989 1.1243e-6 -15.14753 -23.00303 21.21189 -7.518748 -21.95614 21.21189 -4.491497 -18.1989 21.21189 -15.14753 -22.09423 9.23029e-7 -15.20674 -24.26283 0 -8.572853 -22.09423 21.21189 -15.20674 -24.26284 21.21189 -8.572853 -25.3737 9.53674e-7 -15.22967 -26.54663 0 -9.779695 -25.3737 21.21189 -15.22967 -26.54663 21.21189 -9.779695 -28.27043 9.3069e-7 -16.02945 -29.44336 0 -9.860103 -28.27043 21.21189 -16.02944 -29.44336 21.21189 -9.860103 -28.13755 21.21189 -9.850881 -28.13755 0 -9.850881 -26.96462 9.42182e-7 -15.42751 -26.96462 21.21189 -15.42751 -30.19443 9.66443e-7 -18.13862 -31.36736 0 -9.896891 -30.19443 21.21189 -18.13862 -31.36736 21.21189 -9.896891 -31.99777 9.53674e-7 -20.76949 -33.1707 0 -9.90976 -31.99777 21.21189 -20.76949 -33.1707 21.21189 -9.90976 -34.02771 9.63251e-7 -21.74089 -35.20064 0 -9.894423 -34.02771 21.21189 -21.74089 -35.20064 21.21189 -9.894423 -35.69778 9.58995e-7 -22.11625 -36.87071 0 -9.928969 -35.69778 21.21189 -22.11625 -36.87071 21.21189 -9.928969 -36.97521 9.53674e-7 -21.99849 -38.14814 0 -10.29262 -36.97521 21.21189 -21.99848 -38.14814 21.21189 -10.29262 -38.62549 9.58995e-7 -21.52833 -39.79842 0 -11.17665 -38.62549 21.21189 -21.52833 -39.79842 21.21189 -11.17665 -39.85691 9.64315e-7 -20.63675 -41.02983 0 -12.51466 -39.85691 21.21189 -20.63675 -41.02983 21.21189 -12.51466 -40.98423 -0.05394458 -19.67165 -41.7844 -0.05394649 -14.13078 -40.98423 21.26583 -19.67165 -41.7844 21.26583 -14.13078 -41.81991 -0.02937412 -17.91875 -42.11639 -0.02937412 -15.86575 -41.81991 21.24126 -17.91875 -42.11639 21.24126 -15.86575</float_array>
          <technique_common>
            <accessor source="#Cronstain-mesh-positions-array" count="218" stride="3">
              <param name="X" type="float"/>
              <param name="Y" type="float"/>
              <param name="Z" type="float"/>
            </accessor>
          </technique_common>
        </source>
        <source id="Cronstain-mesh-normals">
          <float_array id="Cronstain-mesh-normals-array" count="1134">0 -1 0 0 -1 0 0 -1 0 0 -1 0 0 -1 0 0 -1 0 0 -1 0 0 -1 0 0 1 0 -0.8314696 0 0.5555703 -0.5555698 0 0.8314699 0 -1 0 0 -1 0 -0.1950905 0 0.9807853 -0.1950907 0 -0.9807852 0.1950906 0 0.9807853 0.1950898 0 -0.9807854 -0.5555699 0 0.8314698 0.5555702 0 -0.8314697 0.8314695 0 -0.5555704 -0.9807853 0 0.1950904 0.9807853 0 -0.1950903 -0.3159951 0 -0.9487608 0.9807853 0 0.1950905 0 1 -1.30875e-6 0.8314696 0 0.5555704 -0.5555705 0 -0.8314694 0.5555701 0 0.8314697 -0.1950903 0 -0.9807854 -0.1950905 0 0.9807853 0.8314701 0 0.5555696 -0.83147 0 -0.5555699 0.9807853 0 0.1950905 -0.9807853 0 -0.1950906 0.9807853 0 -0.1950905 -0.9807853 0 0.1950906 0.8314701 0 -0.5555696 -0.83147 0 0.5555697 -0.9807854 0 0.1950904 0 1 1.85928e-6 -0.9807854 0 -0.1950904 -0.8314696 0 -0.5555703 -0.5555704 0 -0.8314695 0 -1 -4.53589e-7 0 1 7.86548e-7 0 1 1.00561e-6 0 1 2.36285e-7 0 1 -2.10222e-6 -0.5555709 0 -0.8314693 0.5555694 0 0.8314703 -0.1950901 0 -0.9807854 -0.1950905 0 0.9807853 0.1950897 0 0.9807854 0.1950907 0 -0.9807852 -0.5555709 0 0.8314693 0.5555709 0 -0.8314693 0.5555699 0 0.83147 -0.5555702 0 -0.8314697 0.8314695 0 0.5555704 -0.8314696 0 -0.5555703 0.9807853 0 0.1950906 -0.9807854 0 -0.1950904 0.9807854 0 -0.1950904 -0.9807853 0 0.1950904 -0.1950907 0 -0.9807852 -0.1950904 0 0.9807853 0.1950901 0 0.9807854 0.1950904 0 -0.9807853 -0.5555701 0 0.8314698 0.55557 0 -0.8314698 -0.8314698 0 0.5555702 0.8314695 0 -0.5555704 0.9815386 0 0.1912647 0.9997233 0 0.02352589 0.999947 0 0.01029598 0.1782643 0 0.9839827 0.947394 0 0.3200702 0.8443027 0 0.5358668 0.6327596 0 0.7743483 0.4570185 0 0.8894572 0 1 -3.44823e-6 0 -1 -2.45494e-6 0 0 -1 0 -1 7.88112e-7 0 0 1 0 1 -1.59828e-7 0 -1 0 0 1 6.46956e-7 -0.3496632 0 -0.9368755 0 -1 0 -0.9860759 0 -0.1662964 0.9996401 0 -0.02682757 -0.8263947 0 -0.5630915 0 1 1.07032e-6 -0.9999981 0 -0.001972079 0 1 -2.07135e-6 0 -1 8.66453e-7 0.9999386 0 -0.01108723 0 -1 0 0 1 -5.9922e-7 0 -1 0 0.9999982 0 0.001972258 -0.996733 0 -0.08076745 1 0 0 -1 0 0 6.52595e-4 0.9436916 -0.3308258 1.40744e-4 0.9974505 -0.07136297 1.40665e-4 -0.9974506 -0.07136154 -0.01012176 0 -0.9999489 0.001161038 -0.8083702 -0.5886732 6.52427e-4 -0.9436914 -0.3308265 -0.009736835 -0.2735283 -0.9618147 -0.999998 0 -0.001972496 -0.9999981 0 -0.001972436 -0.009732902 0.2735284 -0.9618148 -0.9999982 0 -0.001972198 0.001161217 0.8083699 -0.5886738 0.001761436 -0.449406 -0.8933259 0.001575231 0.6018096 -0.7986381 0.001575231 -0.6018102 -0.7986376 -0.008081793 -0.6017821 -0.7986196 -0.9999981 0 -0.001972973 0.004208505 -0.9094727 0.4157427 -0.9999981 0 -0.001973628 0.001762032 0.4494055 -0.8933262 0.001972377 0 -0.9999981 0.001897096 0.2735468 -0.9618569 0.001897096 -0.273546 -0.9618571 -0.009045064 0.4493806 -0.8932946 0.9999982 0 0.001972258 0.9999982 0 0.001972258 -0.008081793 0.6017835 -0.7986185 0.996735 0 -0.080742 0.9999981 0 0.001972496 0.9999982 0 0.001972973 0.9999981 0 0.001972436 0.9999982 0 0.001973628 0.9999981 0 0.001972973 0.01012396 0 0.9999488 -0.003349006 0.9436848 -0.3308291 -7.21472e-4 0.9974554 -0.07129091 -0.005959451 -0.8083499 -0.5886722 -7.21658e-4 -0.9974553 -0.07129174 -0.005959451 0.8083496 -0.5886727 -0.009036898 -0.4493795 -0.8932953 0.004503428 0.8955104 0.4450178 -0.003349006 -0.943684 -0.3308314 -0.9450836 0 0.3268289 0.01519954 0 -0.9998846 -0.9927488 0 -0.120208 -2.59709e-7 -1 -2.17243e-7 0 1 -1.26742e-6 -3.39476e-7 -1 0 2.57799e-7 -1 0 0 1 9.71849e-7 0.006991803 0 -0.9999756 -0.6417158 0 0.7669427 0 -1 -1.3079e-7 -0.007062137 0 0.9999751 0 1 2.75187e-7 -0.467214 0 0.8841443 0 -1 -1.46478e-7 0 -1 0 0 -1 -1.40588e-7 0.4186286 2.50145e-7 -0.9081577 0 1 -5.23076e-7 0 1 4.25963e-7 0.1234046 0 -0.9923565 0 -1 -1.68912e-7 -0.04470109 0 0.9990005 -0.007135331 0 0.9999746 0.7387936 2.64219e-7 -0.6739318 0 1 6.40427e-7 -0.01911687 0 0.9998173 0.4316558 3.19656e-7 -0.9020385 0 -1 0 0.8248293 0 -0.565382 0 1 3.84838e-7 0.007554948 0 0.9999715 0 -1 0 -0.2737941 0 0.9617884 -0.02068006 0 0.9997862 0 -1 0 0.2192877 2.10123e-7 -0.9756603 -0.2739894 2.09608e-7 -0.9617328 0 -1 0 -0.09180092 1.40187e-7 -0.9957774 -0.7358085 0 0.6771897 0 1 3.74818e-7 -0.4722021 0 0.8814904 0 -1 0 -0.9061022 0 0.4230589 0 -1 -1.31825e-7 -0.5864548 2.36582e-7 -0.809982 -0.902668 3.6856e-7 -0.4303378 0.05452072 -0.9984816 0.007873117 -0.6503328 0 -0.7596495 0.05451983 0.9984816 0.007873296 -0.9897328 -1.57347e-7 -0.14293 -0.04214566 0.999093 -0.006085813 -0.9821807 0 0.1879391 -0.04214107 -0.9990932 -0.006085991 0 -1 0 0 -1 0 0 -1 0 0 -1 0 0 -1 0 0 -1 0 -0.8314697 0 0.5555701 -0.5555704 0 0.8314695 -0.1950903 0 0.9807853 -0.1950903 0 -0.9807853 0.1950898 0 0.9807854 0.1950899 0 -0.9807854 -0.5555704 0 0.8314695 0.5555699 0 -0.8314698 0.8314695 0 -0.5555704 -0.9807853 0 0.1950904 0.9807853 0 -0.1950904 -0.3159959 0 -0.9487606 0.9807853 0 0.1950905 0 1 -5.87318e-7 0.8314694 0 0.5555706 -0.5555701 0 -0.8314698 0.55557 0 0.8314698 -0.1950901 0 -0.9807853 -0.1950907 0 0.9807853 0.8314693 0 0.5555707 -0.8314692 0 -0.5555709 0.9807853 0 0.195091 -0.9807854 0 -0.1950902 0.9807853 0 -0.1950901 -0.9807854 0 0.1950902 0.8314694 0 -0.5555707 -0.8314692 0 0.5555709 -0.9807854 0 0.1950904 -0.9807854 0 -0.1950904 0 1 -1.57622e-6 0 -1 -2.79698e-7 -0.5555699 0 -0.8314699 0 -1 1.72411e-6 0 1 -1.36402e-6 0 1 2.36285e-7 0 1 6.03363e-7 0 1 1.5731e-6 -0.1950905 0 -0.9807853 -0.1950907 0 0.9807852 0.1950903 0 0.9807853 0.1950897 0 -0.9807854 -0.5555694 0 0.8314703 0.555569 0 -0.8314704 -0.5555703 0 -0.8314696 0.9807853 0 0.1950904 -0.9807854 0 -0.1950903 0.9807854 0 -0.1950903 -0.9807853 0 0.1950903 -0.1950904 0 -0.9807853 -0.1950901 0 0.9807854 0.19509 0 -0.9807854 0.5555701 0 -0.8314698 -0.8314698 0 0.5555701 0.8314696 0 -0.5555704 0.9815385 0 0.1912646 0.9997233 0 0.02352589 0.9999471 0 0.01029598 0.1782641 0 0.9839828 0.9473939 0 0.3200702 0.8443025 0 0.5358668 0.6327597 0 0.7743483 0.4570184 0 0.8894572 0 1 4.90987e-6 0 -1 -2.32411e-7 0 1 4.78681e-7 0 -1 -2.67416e-6 0 1 1.42736e-6 0 -1 -2.14064e-7 -0.3496636 0 -0.9368754 0 -1 3.23478e-7 -0.9860759 0 -0.1662964 0.9996401 0 -0.02682757 -0.8263948 0 -0.5630911 -0.9999982 0 -0.001972079 0 1 3.46581e-6 0 -1 -1.05639e-6 0.9999386 0 -0.01108723 0 1 6.8944e-7 0 -1 1.7236e-7 -0.996733 0 -0.08076739 6.52427e-4 0.9436924 -0.3308236 1.40744e-4 0.9974505 -0.07136249 1.40693e-4 -0.9974506 -0.0713604 0.001161217 -0.8083708 -0.5886725 6.52447e-4 -0.9436914 -0.3308265 -0.009732902 -0.2735283 -0.9618148 -0.9999982 0 -0.001972496 -0.9999981 0 -0.001972436 -0.009736835 0.2735283 -0.9618147 -0.9999982 0 -0.001972198 0.001161217 0.8083716 -0.5886715 0.001762032 -0.4494047 -0.8933266 0.001575231 0.6018102 -0.7986376 0.001575231 -0.6018106 -0.7986373 -0.008081793 -0.6017825 -0.7986192 -0.9999982 0 -0.001972973 0.00420767 -0.909473 0.415742 -0.9999982 0 -0.001973628 0.001761436 0.449406 -0.8933259 0.001897096 0.273546 -0.9618571 0.001897096 -0.2735471 -0.9618567 -0.009036839 0.4493779 -0.8932961 0.9999981 0 0.001972258 -0.008081793 0.6017821 -0.7986196 0.9967351 0 -0.08074176 0.9999981 0 0.001972496 0.9999982 0 0.001972973 0.9999981 0 0.001972436 0.9999982 0 0.001973569 0.999998 0 0.001972973 0.01011979 0 0.9999488 -0.003349006 0.9436833 -0.3308334 -7.21658e-4 0.9974554 -0.07129049 -0.005959451 -0.8083497 -0.5886726 -7.21472e-4 -0.9974552 -0.07129234 -0.005959451 0.8083499 -0.5886722 -0.009045064 -0.4493798 -0.8932951 0.004505097 0.8955101 0.4450186 -0.003349006 -0.9436841 -0.3308313 0.01520103 0 -0.9998845 -0.9927488 0 -0.120208 2.14591e-7 -1 0 0.006990909 0 -0.9999756 -0.6417151 0 0.766943 0 1 5.08609e-7 0 -1 -1.33381e-7 -0.007062137 0 0.9999751 -0.4672141 0 0.8841443 0 -1 -1.59711e-7 0 -1 -1.57543e-7 0 -1 -1.6891e-7 0.4186303 1.58896e-7 -0.9081568 0 1 4.35369e-7 0.1234081 0 -0.992356 0 -1 -1.67913e-7 -0.0447002 0 0.9990005 -0.007136106 0 0.9999746 0.7387934 1.25986e-7 -0.673932 0 1 -2.081e-7 -0.01911759 0 0.9998173 0.431656 1.64256e-7 -0.9020383 0 -1 0 0.8248299 2.25279e-7 -0.5653812 0 1 -3.36548e-7 0 1 -1.83452e-7 0 1 -1.51455e-7 0.007554948 0 0.9999715 0 -1 0 -0.2737951 0 0.9617881 -0.0206809 0 0.9997862 0 -1 0 0.2192861 1.46621e-7 -0.9756606 -0.2739909 1.31108e-7 -0.9617323 0 -1 0 -0.09179872 2.0333e-7 -0.9957777 -0.7358089 0 0.6771893 0 1 -2.30751e-7 -0.4722027 0 0.8814901 0 -1 0 -0.9061026 0 0.4230583 0 -1 0 -0.5864523 0 -0.8099838 -0.9026686 -2.01337e-7 -0.4303365 0.05452108 -0.9984816 0.007873356 -0.6503324 2.37339e-7 -0.7596498 0.05452102 0.9984816 0.007873773 -0.9897328 0 -0.1429302 -0.04214698 0.9990929 -0.006085693 -0.9821807 0 0.1879392 -0.04214358 -0.9990931 -0.006086051</float_array>
          <technique_common>
            <accessor source="#Cronstain-mesh-normals-array" count="378" stride="3">
              <param name="X" type="float"/>
              <param name="Y" type="float"/>
              <param name="Z" type="float"/>
            </accessor>
          </technique_common>
        </source>
        <source id="Cronstain-mesh-map-0">
          <float_array id="Cronstain-mesh-map-0-array" count="2592">0 0 0 0 0 0 0 0 0 0 0 0 0 0 0 0 0 0 0 0 0 0 0 0 0 0 0 0 0 0 0 0 0 0 0 0 0 0 0 0 0 0 0 0 0 0 0 0 0 0 0 0 0 0 0 0 0 0 0 0 0 0 0 0 0 0 0 0 0 0 0 0 0 0 0 0 0 0 0 0 0 0 0 0 0 0 0 0 0 0 0 0 0 0 0 0 0 0 0 0 0 0 0 0 0 0 0 0 0 0 0 0 0 0 0 0 0 0 0 0 0 0 0 0 0 0 0 0 0 0 0 0 0 0 0 0 0 0 0 0 0 0 0 0 0 0 0 0 0 0 0 0 0 0 0 0 0 0 0 0 0 0 0 0 0 0 0 0 0 0 0 0 0 0 0 0 0 0 0 0 0 0 0 0 0 0 0 0 0 0 0 0 0 0 0 0 0 0 0 0 0 0 0 0 0 0 0 0 0 0 0 0 0 0 0 0 0 0 0 0 0 0 0 0 0 0 0 0 0 0 0 0 0 0 0 0 0 0 0 0 0 0 0 0 0 0 0 0 0 0 0 0 0 0 0 0 0 0 0 0 0 0 0 0 0 0 0 0 0 0 0 0 0 0 0 0 0 0 0 0 0 0 0 0 0 0 0 0 0 0 0 0 0 0 0 0 0 0 0 0 0 0 0 0 0 0 0 0 0 0 0 0 0 0 0 0 0 0 0 0 0 0 0 0 0 0 0 0 0 0 0 0 0 0 0 0 0 0 0 0 0 0 0 0 0 0 0 0 0 0 0 0 0 0 0 0 0 0 0 0 0 0 0 0 0 0 0 0 0 0 0 0 0 0 0 0 0 0 0 0 0 0 0 0 0 0 0 0 0 0 0 0 0 0 0 0 0 0 0 0 0 0 0 0 0 0 0 0 0 0 0 0 0 0 0 0 0 0 0 0 0 0 0 0 0 0 0 0 0 0 0 0 0 0 0 0 0 0 0 0 0 0 0 0 0 0 0 0 0 0 0 0 0 0 0 0 0 0 0 0 0 0 0 0 0 0 0 0 0 0 0 0 0 0 0 0 0 0 0 0 0 0 0 0 0 0 0 0 0 0 0 0 0 0 0 0 0 0 0 0 0 0 0 0 0 0 0 0 0 0 0 0 0 0 0 0 0 0 0 0 0 0 0 0 0 0 0 0 0 0 0 0 0 0 0 0 0 0 0 0 0 0 0 0 0 0 0 0 0 0 0 0 0 0 0 0 0 0 0 0 0 0 0 0 0 0 0 0 0 0 0 0 0 0 0 0 0 0 0 0 0 0 0 0 0 0 0 0 0 0 0 0 0 0 0 0 0 0 0 0 0 0 0 0 0 0 0 0 0 0 0 0 0 0 0 0 0 0 0 0 0 0 0 0 0 0 0 0 0 0 0 0 0 0 0 0 0 0 0 0 0 0 0 0 0 0 0 0 0 0 0 0 0 0 0 0 0 0 0 0 0 0 0 0 0 0 0 0 0 0 0 0 0 0 0 0 0 0 0 0 0 0 0 0 0 0 0 0 0 0 0 0 0 0 0 0 0 0 0 0 0 0 0 0 0 0 0 0 0 0 0 0 0 0 0 0 0 0 0 0 0 0 0 0 0 0 0 0 0 0 0 0 0 0 0 0 0 0 0 0 0 0 0 0 0 0 0 0 0 0 0 0 0 0 0 0 0 0 0 0 0 0 0 0 0 0 0 0 0 0 0 0 0 0 0 0 0 0 0 0 0 0 0 0 0 0 0 0 0 0 0 0 0 0 0 0 0 0 0 0 0 0 0 0 0 0 0 0 0 0 0 0 0 0 0 0 0 0 0 0 0 0 0 0 0 0 0 0 0 0 0 0 0 0 0 0 0 0 0 0 0 0 0 0 0 0 0 0 0 0 0 0 0 0 0 0 0 0 0 0 0 0 0 0 0 0 0 0 0 0 0 0 0 0 0 0 0 0 0 0 0 0 0 0 0 0 0 0 0 0 0 0 0 0 0 0 0 0 0 0 0 0 0 0 0 0 0 0 0 0 0 0 0 0 0 0 0 0 0 0 0 0 0 0 0 0 0 0 0 0 0 0 0 0 0 0 0 0 0 0 0 0 0 0 0 0 0 0 0 0 0 0 0 0 0 0 0 0 0 0 0 0 0 0 0 0 0 0 0 0 0 0 0 0 0 0 0 0 0 0 0 0 0 0 0 0 0 0 0 0 0 0 0 0 0 0 0 0 0 0 0 0 0 0 0 0 0 0 0 0 0 0 0 0 0 0 0 0 0 0 0 0 0 0 0 0 0 0 0 0 0 0 0 0 0 0 0 0 0 0 0 0 0 0 0 0 0 0 0 0 0 0 0 0 0 0 0 0 0 0 0 0 0 0 0 0 0 0 0 0 0 0 0 0 0 0 0 0 0 0 0 0 0 0 0 0 0 0 0 0 0 0 0 0 0 0 0 0 0 0 0 0 0 0 0 0 0 0 0 0 0 0 0 0 0 0 0 0 0 0 0 0 0 0 0 0 0 0 0 0 0 0 0 0 0 0 0 0 0 0 0 0 0 0 0 0 0 0 0 0 0 0 0 0 0 0 0 0 0 0 0 0 0 0 0 0 0 0 0 0 0 0 0 0 0 0 0 0 0 0 0 0 0 0 0 0 0 0 0 0 0 0 0 0 0 0 0 0 0 0 0 0 0 0 0 0 0 0 0 0 0 0 0 0 0 0 0 0 0 0 0 0 0 0 0 0 0 0 0 0 0 0 0 0 0 0 0 0 0 0 0 0 0 0 0 0 0 0 0 0 0 0 0 0 0 0 0 0 0 0 0 0 0 0 0 0 0 0 0 0 0 0 0 0 0 0 0 0 0 0 0 0 0 0 0 0 0 0 0 0 0 0 0 0 0 0 0 0 0 0 0 0 0 0 0 0 0 0 0 0 0 0 0 0 0 0 0 0 0 0 0 0 0 0 0 0 0 0 0 0 0 0 0 0 0 0 0 0 0 0 0 0 0 0 0 0 0 0 0 0 0 0 0 0 0 0 0 0 0 0 0 0 0 0 0 0 0 0 0 0 0 0 0 0 0 0 0 0 0 0 0 0 0 0 0 0 0 0 0 0 0 0 0 0 0 0 0 0 0 0 0 0 0 0 0 0 0 0 0 0 0 0 0 0 0 0 0 0 0 0 0 0 0 0 0 0 0 0 0 0 0 0 0 0 0 0 0 0 0 0 0 0 0 0 0 0 0 0 0 0 0 0 0 0 0 0 0 0 0 0 0 0 0 0 0 0 0 0 0 0 0 0 0 0 0 0 0 0 0 0 0 0 0 0 0 0 0 0 0 0 0 0 0 0 0 0 0 0 0 0 0 0 0 0 0 0 0 0 0 0 0 0 0 0 0 0 0 0 0 0 0 0 0 0 0 0 0 0 0 0 0 0 0 0 0 0 0 0 0 0 0 0 0 0 0 0 0 0 0 0 0 0 0 0 0 0 0 0 0 0 0 0 0 0 0 0 0 0 0 0 0 0 0 0 0 0 0 0 0 0 0 0 0 0 0 0 0 0 0 0 0 0 0 0 0 0 0 0 0 0 0 0 0 0 0 0 0 0 0 0 0 0 0 0 0 0 0 0 0 0 0 0 0 0 0 0 0 0 0 0 0 0 0 0 0 0 0 0 0 0 0 0 0 0 0 0 0 0 0 0 0 0 0 0 0 0 0 0 0 0 0 0 0 0 0 0 0 0 0 0 0 0 0 0 0 0 0 0 0 0 0 0 0 0 0 0 0 0 0 0 0 0 0 0 0 0 0 0 0 0 0 0 0 0 0 0 0 0 0 0 0 0 0 0 0 0 0 0 0 0 0 0 0 0 0 0 0 0 0 0 0 0 0 0 0 0 0 0 0 0 0 0 0 0 0 0 0 0 0 0 0 0 0 0 0 0 0 0 0 0 0 0 0 0 0 0 0 0 0 0 0 0 0 0 0 0 0 0 0 0 0 0 0 0 0 0 0 0 0 0 0 0 0 0 0 0 0 0 0 0 0 0 0 0 0 0 0 0 0 0 0 0 0 0 0 0 0 0 0 0 0 0 0 0 0 0 0 0 0 0 0 0 0 0 0 0 0 0 0 0 0 0 0 0 0 0 0 0 0 0 0 0 0 0 0 0 0 0 0 0 0 0 0 0 0 0 0 0 0 0 0 0 0 0 0 0 0 0 0 0 0 0 0 0 0 0 0 0 0 0 0 0 0 0 0 0 0 0 0 0 0 0 0 0 0 0 0 0 0 0 0 0 0 0 0 0 0 0 0 0 0 0 0 0 0 0 0 0 0 0 0 0 0 0 0 0 0 0 0 0 0 0 0 0 0 0 0 0 0 0 0 0 0 0 0 0 0 0 0 0 0 0 0 0 0 0 0 0 0 0 0 0 0 0 0 0 0 0 0 0 0 0 0 0 0 0 0 0 0 0 0 0 0 0 0 0 0 0 0 0 0 0 0 0 0 0 0 0 0 0 0 0 0 0 0 0 0 0 0 0 0 0 0 0 0 0 0 0 0 0 0 0 0 0 0 0 0 0 0 0 0 0 0 0 0 0 0 0 0 0 0 0 0 0 0 0 0 0 0 0 0 0 0 0 0 0 0 0 0 0 0 0 0 0 0 0 0 0 0 0 0 0 0 0 0 0 0 0 0 0 0 0 0 0 0 0 0 0 0 0 0 0 0 0 0 0 0 0 0 0 0 0 0 0 0 0 0 0 0 0 0 0 0 0 0 0 0 0 0 0 0 0 0 0 0 0 0 0 0 0 0 0 0 0 0 0 0 0 0 0 0 0 0 0 0 0 0 0 0 0 0 0 0 0 0 0 0 0 0 0 0 0 0 0 0 0 0 0 0 0 0 0 0 0 0 0 0 0 0 0 0 0 0 0 0 0 0 0 0 0 0 0 0 0 0 0 0 0 0 0 0 0 0 0 0 0 0 0 0 0 0 0 0 0 0 0 0 0 0 0 0 0 0 0 0 0 0 0 0 0 0 0 0 0 0 0 0 0 0 0 0 0 0 0 0 0 0 0 0 0 0 0 0 0 0 0 0 0 0 0 0 0 0 0 0 0 0 0 0 0 0 0 0 0 0 0 0 0 0 0 0 0 0 0 0 0 0 0 0 0 0 0 0 0 0 0 0 0 0 0 0 0 0 0 0 0 0 0 0 0 0 0 0 0 0 0 0 0 0 0 0 0 0 0 0 0 0 0 0 0 0 0 0 0 0 0 0 0 0 0 0 0 0 0 0 0 0 0 0 0 0 0 0 0 0 0 0 0 0 0 0 0 0 0 0 0 0 0 0 0 0 0 0 0 0 0 0 0 0 0 0 0 0 0 0 0 0 0 0 0 0 0 0 0 0 0 0 0 0 0 0 0 0 0 0 0 0 0 0 0 0 0 0 0 0 0 0 0 0 0 0 0 0 0 0 0 0 0 0 0 0 0 0 0 0 0 0 0 0 0 0 0 0 0 0 0 0 0 0 0 0 0 0 0 0 0 0 0 0 0 0 0 0 0 0 0 0 0 0 0 0 0 0 0 0 0 0 0 0 0 0 0 0 0 0 0 0 0 0 0 0 0 0 0 0 0 0 0 0 0 0 0 0 0 0 0 0 0 0 0 0 0 0 0 0 0 0 0 0 0 0 0 0 0 0 0 0 0 0 0 0 0 0 0 0 0 0 0 0 0 0 0 0 0 0 0 0 0 0 0 0 0 0 0 0 0 0 0 0 0 0 0 0 0 0 0 0 0 0 0 0 0 0 0 0 0 0 0 0 0 0 0</float_array>
          <technique_common>
            <accessor source="#Cronstain-mesh-map-0-array" count="1296" stride="2">
              <param name="S" type="float"/>
              <param name="T" type="float"/>
            </accessor>
          </technique_common>
        </source>
        <vertices id="Cronstain-mesh-vertices">
          <input semantic="POSITION" source="#Cronstain-mesh-positions"/>
        </vertices>
        <triangles count="432">
          <input semantic="VERTEX" source="#Cronstain-mesh-vertices" offset="0"/>
          <input semantic="NORMAL" source="#Cronstain-mesh-normals" offset="1"/>
          <input semantic="TEXCOORD" source="#Cronstain-mesh-map-0" offset="2" set="0"/>
          <p>0 0 0 1 0 1 15 0 2 2 1 3 15 1 4 1 1 5 3 2 6 14 2 7 2 2 8 4 3 9 13 3 10 3 3 11 11 4 12 4 4 13 5 4 14 10 5 15 5 5 16 6 5 17 9 6 18 6 6 19 7 6 20 8 7 21 9 7 22 7 7 23 47 8 24 83 8 25 81 8 26 64 9 27 35 9 28 72 9 29 46 8 30 81 8 31 90 8 32 67 10 33 34 10 34 64 10 35 73 11 36 93 11 37 94 11 38 79 12 39 80 12 40 66 12 41 68 13 42 32 13 43 67 13 44 69 14 45 39 14 46 40 14 47 15 15 48 17 15 49 0 15 50 8 16 51 25 16 52 9 16 53 1 17 54 18 17 55 2 17 56 9 18 57 26 18 58 10 18 59 2 9 60 19 9 61 3 9 62 10 19 63 27 19 64 11 19 65 3 20 66 20 20 67 4 20 68 11 21 69 28 21 70 12 21 71 22 22 72 162 22 73 165 22 74 12 23 75 29 23 76 13 23 77 21 24 78 165 24 79 163 24 80 13 25 81 30 25 82 14 25 83 6 26 84 23 26 85 7 26 86 14 27 87 31 27 88 15 27 89 8 28 90 23 28 91 24 28 92 1 29 93 17 29 94 16 29 95 45 30 96 62 30 97 46 30 98 37 31 99 54 31 100 38 31 101 44 32 102 61 32 103 45 32 104 36 33 105 53 33 106 37 33 107 43 34 108 60 34 109 44 34 110 35 35 111 52 35 112 36 35 113 42 36 114 59 36 115 43 36 116 34 37 117 51 37 118 35 37 119 72 38 120 36 38 121 74 38 122 45 39 123 90 39 124 89 39 125 74 40 126 37 40 127 76 40 128 44 8 129 89 8 130 88 8 131 76 41 132 38 41 133 78 41 134 73 12 135 95 12 136 75 12 137 78 42 138 39 42 139 70 42 140 71 43 141 91 43 142 93 43 143 49 8 144 63 8 145 48 8 146 50 44 147 63 44 148 62 44 149 51 45 150 62 45 151 61 45 152 52 46 153 61 46 154 60 46 155 52 8 156 59 8 157 53 8 158 53 47 159 58 47 160 54 47 161 54 8 162 57 8 163 55 8 164 56 8 165 55 8 166 57 8 167 38 48 168 55 48 169 39 48 170 46 49 171 63 49 172 47 49 173 39 50 174 56 50 175 40 50 176 33 51 177 48 51 178 32 51 179 47 52 180 49 52 181 33 52 182 40 53 183 57 53 184 41 53 185 32 54 186 50 54 187 34 54 188 41 55 189 58 55 190 42 55 191 30 56 192 66 56 193 31 56 194 22 57 195 70 57 196 23 57 197 29 58 198 79 58 199 30 58 200 21 59 201 78 59 202 22 59 203 28 60 204 77 60 205 29 60 206 20 61 207 76 61 208 21 61 209 27 62 210 75 62 211 28 62 212 19 63 213 74 63 214 20 63 215 24 64 216 70 64 217 69 64 218 16 65 219 68 65 220 67 65 221 31 66 222 68 66 223 17 66 224 24 67 225 65 67 226 25 67 227 16 68 228 64 68 229 18 68 230 25 69 231 71 69 232 26 69 233 18 70 234 72 70 235 19 70 236 26 71 237 73 71 238 27 71 239 93 72 240 87 72 241 94 72 242 91 73 243 86 73 244 93 73 245 91 74 246 98 74 247 84 74 248 80 75 249 83 75 250 82 75 251 94 76 252 88 76 253 95 76 254 95 77 255 89 77 256 96 77 257 96 78 258 90 78 259 97 78 260 97 79 261 81 79 262 80 79 263 41 8 264 85 8 265 40 8 266 77 12 267 97 12 268 79 12 269 66 12 270 82 12 271 68 12 272 42 80 273 84 80 274 41 80 275 65 81 276 92 81 277 91 81 278 40 82 279 92 82 280 69 82 281 75 83 282 96 83 283 77 83 284 43 8 285 86 8 286 42 8 287 68 84 288 83 84 289 33 84 290 43 85 291 88 85 292 87 85 293 100 86 294 105 86 295 104 86 296 84 87 297 99 87 298 85 87 299 85 88 300 101 88 301 92 88 302 91 89 303 101 89 304 100 89 305 103 90 306 109 90 307 105 90 308 100 91 309 102 91 310 98 91 311 99 92 312 105 92 313 101 92 314 98 93 315 103 93 316 99 93 317 107 94 318 113 94 319 109 94 320 102 95 321 107 95 322 103 95 323 104 96 324 109 96 325 108 96 326 104 97 327 106 97 328 102 97 329 113 98 330 116 98 331 112 98 332 106 99 333 111 99 334 107 99 335 109 100 336 112 100 337 108 100 338 112 101 339 143 101 340 108 101 341 117 102 342 119 102 343 121 102 344 110 103 345 142 103 346 114 103 347 111 104 348 117 104 349 113 104 350 111 8 351 114 8 352 115 8 353 118 105 354 123 105 355 119 105 356 115 106 357 118 106 358 119 106 359 117 107 360 120 107 361 116 107 362 138 108 363 157 108 364 140 108 365 124 109 366 129 109 367 128 109 368 121 110 369 124 110 370 120 110 371 140 111 372 155 111 373 136 111 374 119 112 375 125 112 376 121 112 377 127 113 378 133 113 379 129 113 380 138 114 381 154 114 382 156 114 383 123 115 384 129 115 385 125 115 386 122 116 387 127 116 388 123 116 389 132 117 390 137 117 391 136 117 392 126 118 393 131 118 394 127 118 395 128 119 396 133 119 397 132 119 398 132 120 399 151 120 400 128 120 401 135 121 402 141 121 403 137 121 404 116 122 405 159 122 406 143 122 407 131 123 408 137 123 409 133 123 410 130 124 411 135 124 412 131 124 413 141 125 414 138 125 415 140 125 416 134 126 417 139 126 418 135 126 419 136 127 420 141 127 421 140 127 422 134 128 423 152 128 424 154 128 425 108 129 426 142 129 427 106 129 428 110 130 429 106 130 430 142 130 431 130 131 432 150 131 433 152 131 434 143 103 435 112 103 436 116 103 437 145 132 438 146 132 439 144 132 440 146 133 441 149 133 442 148 133 443 149 134 444 150 134 445 148 134 446 150 135 447 153 135 448 152 135 449 153 136 450 154 136 451 152 136 452 155 137 453 156 137 454 154 137 455 145 103 456 158 103 457 159 103 458 143 138 459 158 138 460 142 138 461 122 139 462 146 139 463 148 139 464 114 140 465 146 140 466 118 140 467 128 141 468 149 141 469 124 141 470 116 142 471 147 142 472 145 142 473 126 143 474 148 143 475 150 143 476 136 144 477 153 144 478 132 144 479 114 145 480 158 145 481 144 145 482 124 146 483 147 146 484 120 146 485 161 147 486 163 147 487 160 147 488 162 148 489 168 148 490 165 148 491 20 149 492 161 149 493 4 149 494 5 150 495 162 150 496 6 150 497 20 151 498 21 151 499 164 151 500 4 152 501 161 152 502 5 152 503 161 153 504 160 153 505 5 153 506 164 154 507 21 154 508 163 154 509 168 155 510 170 155 511 172 155 512 163 156 513 167 156 514 160 156 515 163 8 516 168 8 517 169 8 518 160 157 519 166 157 520 162 157 521 178 158 522 175 158 523 179 158 524 169 159 525 172 159 526 173 159 527 169 160 528 171 160 529 167 160 530 167 161 531 170 161 532 166 161 533 174 162 534 183 162 535 182 162 536 180 163 537 175 163 538 174 163 539 180 164 540 176 164 541 181 164 542 181 165 543 177 165 544 178 165 545 173 166 546 181 166 547 178 166 548 170 167 549 181 167 550 172 167 551 171 168 552 180 168 553 170 168 554 173 169 555 179 169 556 171 169 557 185 170 558 187 170 559 183 170 560 176 171 561 182 171 562 184 171 563 176 172 564 185 172 565 177 172 566 177 173 567 183 173 568 175 173 569 186 174 570 192 174 571 188 174 572 182 175 573 187 175 574 186 175 575 182 176 576 188 176 577 184 176 578 184 8 579 189 8 580 185 8 581 192 177 582 197 177 583 193 177 584 188 8 585 193 8 586 189 8 587 189 178 588 191 178 589 187 178 590 186 179 591 191 179 592 190 179 593 197 180 594 199 180 595 195 180 596 193 181 597 195 181 598 191 181 599 190 182 600 195 182 601 194 182 602 190 183 603 196 183 604 192 183 605 198 184 606 204 184 607 200 184 608 195 185 609 198 185 610 194 185 611 194 186 612 200 186 613 196 186 614 197 8 615 200 8 616 201 8 617 205 187 618 207 187 619 203 187 620 200 188 621 205 188 622 201 188 623 201 189 624 203 189 625 199 189 626 198 190 627 203 190 628 202 190 629 209 191 630 211 191 631 207 191 632 202 192 633 207 192 634 206 192 635 202 193 636 208 193 637 204 193 638 204 8 639 209 8 640 205 8 641 210 194 642 216 194 643 212 194 644 206 195 645 211 195 646 210 195 647 206 196 648 212 196 649 208 196 650 208 197 651 213 197 652 209 197 653 215 198 654 216 198 655 214 198 656 213 199 657 216 199 658 217 199 659 213 200 660 215 200 661 211 200 662 211 201 663 214 201 664 210 201 665 2 202 666 14 202 667 15 202 668 3 203 669 13 203 670 14 203 671 4 204 672 12 204 673 13 204 674 11 205 675 12 205 676 4 205 677 10 206 678 11 206 679 5 206 680 9 207 681 10 207 682 6 207 683 47 8 684 33 8 685 83 8 686 64 208 687 34 208 688 35 208 689 46 8 690 47 8 691 81 8 692 67 209 693 32 209 694 34 209 695 73 12 696 71 12 697 93 12 698 79 12 699 97 12 700 80 12 701 68 210 702 33 210 703 32 210 704 69 211 705 70 211 706 39 211 707 15 212 708 31 212 709 17 212 710 8 213 711 24 213 712 25 213 713 1 214 714 16 214 715 18 214 716 9 215 717 25 215 718 26 215 719 2 208 720 18 208 721 19 208 722 10 216 723 26 216 724 27 216 725 3 217 726 19 217 727 20 217 728 11 218 729 27 218 730 28 218 731 22 219 732 6 219 733 162 219 734 12 220 735 28 220 736 29 220 737 21 221 738 22 221 739 165 221 740 13 222 741 29 222 742 30 222 743 6 223 744 22 223 745 23 223 746 14 224 747 30 224 748 31 224 749 8 225 750 7 225 751 23 225 752 1 226 753 0 226 754 17 226 755 45 227 756 61 227 757 62 227 758 37 228 759 53 228 760 54 228 761 44 229 762 60 229 763 61 229 764 36 230 765 52 230 766 53 230 767 43 231 768 59 231 769 60 231 770 35 232 771 51 232 772 52 232 773 42 233 774 58 233 775 59 233 776 34 234 777 50 234 778 51 234 779 72 235 780 35 235 781 36 235 782 45 8 783 46 8 784 90 8 785 74 236 786 36 236 787 37 236 788 44 237 789 45 237 790 89 237 791 76 59 792 37 59 793 38 59 794 73 238 795 94 238 796 95 238 797 78 239 798 38 239 799 39 239 800 71 240 801 65 240 802 91 240 803 50 8 804 48 8 805 63 8 806 51 8 807 50 8 808 62 8 809 52 241 810 51 241 811 61 241 812 52 242 813 60 242 814 59 242 815 53 243 816 59 243 817 58 243 818 54 244 819 58 244 820 57 244 821 38 48 822 54 48 823 55 48 824 46 49 825 62 49 826 63 49 827 39 245 828 55 245 829 56 245 830 33 246 831 49 246 832 48 246 833 47 247 834 63 247 835 49 247 836 40 248 837 56 248 838 57 248 839 32 249 840 48 249 841 50 249 842 41 250 843 57 250 844 58 250 845 30 224 846 79 224 847 66 224 848 22 251 849 78 251 850 70 251 851 29 58 852 77 58 853 79 58 854 21 59 855 76 59 856 78 59 857 28 252 858 75 252 859 77 252 860 20 253 861 74 253 862 76 253 863 27 254 864 73 254 865 75 254 866 19 255 867 72 255 868 74 255 869 24 256 870 23 256 871 70 256 872 16 257 873 17 257 874 68 257 875 31 212 876 66 212 877 68 212 878 24 258 879 69 258 880 65 258 881 16 209 882 67 209 883 64 209 884 25 259 885 65 259 886 71 259 887 18 260 888 64 260 889 72 260 890 26 261 891 71 261 892 73 261 893 93 262 894 86 262 895 87 262 896 91 263 897 84 263 898 86 263 899 91 264 900 100 264 901 98 264 902 80 265 903 81 265 904 83 265 905 94 266 906 87 266 907 88 266 908 95 267 909 88 267 910 89 267 911 96 268 912 89 268 913 90 268 914 97 269 915 90 269 916 81 269 917 41 270 918 84 270 919 85 270 920 77 271 921 96 271 922 97 271 923 66 12 924 80 12 925 82 12 926 42 272 927 86 272 928 84 272 929 65 273 930 69 273 931 92 273 932 40 82 933 85 82 934 92 82 935 75 12 936 95 12 937 96 12 938 43 8 939 87 8 940 86 8 941 68 84 942 82 84 943 83 84 944 43 274 945 44 274 946 88 274 947 100 275 948 101 275 949 105 275 950 84 8 951 98 8 952 99 8 953 85 276 954 99 276 955 101 276 956 91 277 957 92 277 958 101 277 959 103 278 960 107 278 961 109 278 962 100 279 963 104 279 964 102 279 965 99 280 966 103 280 967 105 280 968 98 8 969 102 8 970 103 8 971 107 281 972 111 281 973 113 281 974 102 282 975 106 282 976 107 282 977 104 283 978 105 283 979 109 283 980 104 284 981 108 284 982 106 284 983 113 98 984 117 98 985 116 98 986 106 285 987 110 285 988 111 285 989 109 286 990 113 286 991 112 286 992 117 287 993 115 287 994 119 287 995 111 104 996 115 104 997 117 104 998 111 8 999 110 8 1000 114 8 1001 118 288 1002 122 288 1003 123 288 1004 115 289 1005 114 289 1006 118 289 1007 117 290 1008 121 290 1009 120 290 1010 138 108 1011 156 108 1012 157 108 1013 124 291 1014 125 291 1015 129 291 1016 121 292 1017 125 292 1018 124 292 1019 140 293 1020 157 293 1021 155 293 1022 119 294 1023 123 294 1024 125 294 1025 127 295 1026 131 295 1027 133 295 1028 138 296 1029 134 296 1030 154 296 1031 123 297 1032 127 297 1033 129 297 1034 122 298 1035 126 298 1036 127 298 1037 132 299 1038 133 299 1039 137 299 1040 126 300 1041 130 300 1042 131 300 1043 128 301 1044 129 301 1045 133 301 1046 132 302 1047 153 302 1048 151 302 1049 135 303 1050 139 303 1051 141 303 1052 116 304 1053 145 304 1054 159 304 1055 131 305 1056 135 305 1057 137 305 1058 130 306 1059 134 306 1060 135 306 1061 141 125 1062 139 125 1063 138 125 1064 134 307 1065 138 307 1066 139 307 1067 136 308 1068 137 308 1069 141 308 1070 134 309 1071 130 309 1072 152 309 1073 108 310 1074 143 310 1075 142 310 1076 130 311 1077 126 311 1078 150 311 1079 145 312 1080 147 312 1081 146 312 1082 146 313 1083 147 313 1084 149 313 1085 149 314 1086 151 314 1087 150 314 1088 150 315 1089 151 315 1090 153 315 1091 153 316 1092 155 316 1093 154 316 1094 155 317 1095 157 317 1096 156 317 1097 145 103 1098 144 103 1099 158 103 1100 143 318 1101 159 318 1102 158 318 1103 122 319 1104 118 319 1105 146 319 1106 114 320 1107 144 320 1108 146 320 1109 128 321 1110 151 321 1111 149 321 1112 116 322 1113 120 322 1114 147 322 1115 126 323 1116 122 323 1117 148 323 1118 136 324 1119 155 324 1120 153 324 1121 114 325 1122 142 325 1123 158 325 1124 124 326 1125 149 326 1126 147 326 1127 161 147 1128 164 147 1129 163 147 1130 162 327 1131 166 327 1132 168 327 1133 20 328 1134 164 328 1135 161 328 1136 5 329 1137 160 329 1138 162 329 1139 168 330 1140 166 330 1141 170 330 1142 163 331 1143 169 331 1144 167 331 1145 163 332 1146 165 332 1147 168 332 1148 160 333 1149 167 333 1150 166 333 1151 178 334 1152 177 334 1153 175 334 1154 169 8 1155 168 8 1156 172 8 1157 169 335 1158 173 335 1159 171 335 1160 167 336 1161 171 336 1162 170 336 1163 174 337 1164 175 337 1165 183 337 1166 180 338 1167 179 338 1168 175 338 1169 180 339 1170 174 339 1171 176 339 1172 181 340 1173 176 340 1174 177 340 1175 173 8 1176 172 8 1177 181 8 1178 170 341 1179 180 341 1180 181 341 1181 171 342 1182 179 342 1183 180 342 1184 173 343 1185 178 343 1186 179 343 1187 185 344 1188 189 344 1189 187 344 1190 176 345 1191 174 345 1192 182 345 1193 176 346 1194 184 346 1195 185 346 1196 177 347 1197 185 347 1198 183 347 1199 186 348 1200 190 348 1201 192 348 1202 182 349 1203 183 349 1204 187 349 1205 182 350 1206 186 350 1207 188 350 1208 184 351 1209 188 351 1210 189 351 1211 192 352 1212 196 352 1213 197 352 1214 188 353 1215 192 353 1216 193 353 1217 189 354 1218 193 354 1219 191 354 1220 186 355 1221 187 355 1222 191 355 1223 197 356 1224 201 356 1225 199 356 1226 193 357 1227 197 357 1228 195 357 1229 190 358 1230 191 358 1231 195 358 1232 190 359 1233 194 359 1234 196 359 1235 198 360 1236 202 360 1237 204 360 1238 195 361 1239 199 361 1240 198 361 1241 194 362 1242 198 362 1243 200 362 1244 197 8 1245 196 8 1246 200 8 1247 205 363 1248 209 363 1249 207 363 1250 200 364 1251 204 364 1252 205 364 1253 201 365 1254 205 365 1255 203 365 1256 198 366 1257 199 366 1258 203 366 1259 209 367 1260 213 367 1261 211 367 1262 202 368 1263 203 368 1264 207 368 1265 202 369 1266 206 369 1267 208 369 1268 204 8 1269 208 8 1270 209 8 1271 210 370 1272 214 370 1273 216 370 1274 206 371 1275 207 371 1276 211 371 1277 206 372 1278 210 372 1279 212 372 1280 208 373 1281 212 373 1282 213 373 1283 215 374 1284 217 374 1285 216 374 1286 213 375 1287 212 375 1288 216 375 1289 213 376 1290 217 376 1291 215 376 1292 211 377 1293 215 377 1294 214 377 1295</p>
        </triangles>
      </mesh>
    </geometry>
  </library_geometries>
  <library_visual_scenes>
    <visual_scene id="Scene" name="Scene">
      <node id="Cronstain" name="Cronstain" type="NODE">
        <matrix sid="transform">0.007000029 0 0 0 0 0.007000029 0 0 0 0 0.007000029 0 0 0 0 1</matrix>
        <instance_geometry url="#Cronstain-mesh" name="Cronstain"/>
      </node>
    </visual_scene>
  </library_visual_scenes>
  <scene>
    <instance_visual_scene url="#Scene"/>
  </scene>
</COLLADA>